Info: Start Nativelink Simulation process

========= EDA Simulation Settings =====================

Sim Mode              :  Gate
Family                :  cycloneivgx
Quartus root          :  c:/intelfpga_lite/17.0/quartus/bin64/
Quartus sim root      :  c:/intelfpga_lite/17.0/quartus/eda/sim_lib
Simulation Tool       :  modelsim-altera
Simulation Language   :  verilog
Simulation Mode       :  GUI
Sim Output File       :  main_7_1200mv_85c_slow.vo
Sim SDF File       :  main_7_1200mv_85c_v_slow.sdo
Sim dir               :  simulation\modelsim

=======================================================

Info: Starting NativeLink simulation with ModelSim-Altera software
Sourced NativeLink script c:/intelfpga_lite/17.0/quartus/common/tcl/internal/nativelink/modelsim.tcl
Info: Spawning ModelSim-Altera Simulation software 
Info: NativeLink simulation flow was successful
