Added Member To Class: ClassName=main_sheet Member=Component P1 100K
Added Member To Class: ClassName=main_sheet Member=Component P2 100K
Added Member To Class: ClassName=main_sheet Member=Component P3 100K
