Added Component: Designator=HS1(HS-TO-220-183004-37)
Add component. Clean all parameters for all variants
Added Component: Designator=TP1(TEST_POINT_PTH)
Add component. Clean all parameters for all variants
Added Component: Designator=TP2(TEST_POINT_PTH)
Add component. Clean all parameters for all variants
Added Component: Designator=X1(IFSC_SILK)
Add component. Clean all parameters for all variants
Added Component: Designator=X2(IFSC_SILK)
Add component. Clean all parameters for all variants
Added Pin To Net: NetName=NetC17_1 Pin=TP1-1
Added Pin To Net: NetName=NetC4_1 Pin=TP2-1
Added Member To Class: ClassName=main_sheet Member=Component HS1 HS-TO-220
Added Member To Class: ClassName=main_sheet Member=Component TP1 TestPoint
Added Member To Class: ClassName=main_sheet Member=Component TP2 TestPoint
Added Member To Class: ClassName=main_sheet Member=Component X1 IFSC
Added Member To Class: ClassName=main_sheet Member=Component X2 IFSC
