Removed Pin From Net: NetName=VCC1 Pin=CN3-1
Removed Pin From Net: NetName=GND Pin=CN3-2
Added Pin To Net: NetName=GND Pin=CN3-1
Added Pin To Net: NetName=VCC1 Pin=CN3-2
Added Member To Class: ClassName=main_sheet Member=Component C19 2.2mF
