\relax 
\catcode `"\active 
\babel@aux{brazilian}{}
\@writefile{toc}{\contentsline {section}{\numberline {1}Introdu\IeC {\c c}ao}{2}}
\@writefile{toc}{\contentsline {section}{\numberline {2}Resumo te\IeC {\'o}rico}{2}}
\@writefile{toc}{\contentsline {subsection}{\numberline {2.1}LM-35}{2}}
\@writefile{toc}{\contentsline {subsection}{\numberline {2.2}ICL-7107}{2}}
\@writefile{toc}{\contentsline {section}{\numberline {3}Desenvolvimento}{3}}
\@writefile{toc}{\contentsline {subsection}{\numberline {3.1}Circuito eletr\IeC {\^o}nico}{3}}
\@writefile{lof}{\contentsline {figure}{\numberline {1}{\ignorespaces Circuito projetado}}{3}}
\newlabel{fig:circuito}{{1}{3}}
\@writefile{toc}{\contentsline {subsection}{\numberline {3.2}Simula\IeC {\c c}\IeC {\~a}o}{3}}
\@writefile{lof}{\contentsline {figure}{\numberline {2}{\ignorespaces Circuito simulado}}{4}}
\newlabel{fig:sim}{{2}{4}}
\newlabel{tab}{{3.2}{4}}
\@writefile{lot}{\contentsline {table}{\numberline {1}{\ignorespaces Compara\IeC {\c c}\IeC {\~a}o da sa\IeC {\'\i }da vs entrada}}{4}}
\@writefile{lof}{\contentsline {figure}{\numberline {3}{\ignorespaces Gr\IeC {\'a}fico da sa\IeC {\'\i }da}}{5}}
\newlabel{fig:graph}{{3}{5}}
\@writefile{toc}{\contentsline {subsection}{\numberline {3.3}Design da PCI}{5}}
\@writefile{lof}{\contentsline {figure}{\numberline {4}{\ignorespaces Vis\IeC {\~a}o superior da PCB.}}{5}}
\newlabel{fig:pcb}{{4}{5}}
\@writefile{lof}{\contentsline {figure}{\numberline {5}{\ignorespaces Visualiza\IeC {\c c}\IeC {\~a}o 3d da PCB.}}{6}}
\newlabel{fig:3d}{{5}{6}}
\@writefile{toc}{\contentsline {section}{\numberline {4}Resultados e conclus\IeC {\~o}es}{6}}
\@writefile{toc}{\contentsline {section}{\numberline {5}Refer\IeC {\^e}ncias}{6}}
