\babel@toc {brazilian}{}
\contentsline {section}{\numberline {1}Introdu\IeC {\c c}ao}{2}
\contentsline {section}{\numberline {2}Resumo te\IeC {\'o}rico}{2}
\contentsline {subsection}{\numberline {2.1}LM-35}{2}
\contentsline {subsection}{\numberline {2.2}ICL-7107}{2}
\contentsline {section}{\numberline {3}Desenvolvimento}{3}
\contentsline {subsection}{\numberline {3.1}Circuito eletr\IeC {\^o}nico}{3}
\contentsline {subsection}{\numberline {3.2}Simula\IeC {\c c}\IeC {\~a}o}{3}
\contentsline {subsection}{\numberline {3.3}Design da PCI}{5}
\contentsline {section}{\numberline {4}Resultados e conclus\IeC {\~o}es}{6}
\contentsline {section}{\numberline {5}Refer\IeC {\^e}ncias}{6}
