Record Length,2.500000e+03,,  -0.000000124000,   4.96000,
Sample Interval,1.000000e-10,,  -0.000000123900,   4.96000,
Trigger Point,1.240000000000e+03,,  -0.000000123800,   4.96000,
,,,  -0.000000123700,   4.96000,
,,,  -0.000000123600,   4.88000,
,,,  -0.000000123500,   4.88000,
Source,CH2,,  -0.000000123400,   4.88000,
Vertical Units,V,,  -0.000000123300,   4.88000,
Vertical Scale,2.000000e+00,,  -0.000000123200,   4.88000,
Vertical Offset,0.000000e+00,,  -0.000000123100,   4.88000,
Horizontal Units,s,,  -0.000000123000,   4.88000,
Horizontal Scale,2.500000e-08,,  -0.000000122900,   4.88000,
Pt Fmt,Y,,  -0.000000122800,   4.88000,
Yzero,0.000000e+00,,  -0.000000122700,   4.88000,
Probe Atten,1.000000e+01,,  -0.000000122600,   4.88000,
Model Number,TBS1062,,  -0.000000122500,   4.88000,
Serial Number,C030428,,  -0.000000122400,   4.88000,
Firmware Version,FV:v26.02,,  -0.000000122300,   4.88000,
,,,-00.000000122200,   4.88000,
,,,-00.000000122100,   4.88000,
,,,-00.000000122000,   4.88000,
,,,-00.000000121900,   4.88000,
,,,-00.000000121800,   4.96000,
,,,-00.000000121700,   4.96000,
,,,-00.000000121600,   4.96000,
,,,-00.000000121500,   4.96000,
,,,-00.000000121400,   4.96000,
,,,-00.000000121300,   4.96000,
,,,-00.000000121200,   4.96000,
,,,-00.000000121100,   4.96000,
,,,-00.000000121000,   5.04000,
,,,-00.000000120900,   5.04000,
,,,-00.000000120800,   5.04000,
,,,-00.000000120700,   5.04000,
,,,-00.000000120600,   4.96000,
,,,-00.000000120500,   4.96000,
,,,-00.000000120400,   4.96000,
,,,-00.000000120300,   4.96000,
,,,-00.000000120200,   4.96000,
,,,-00.000000120100,   4.96000,
,,,-00.000000120000,   4.96000,
,,,-00.000000119900,   4.96000,
,,,-00.000000119800,   4.96000,
,,,-00.000000119700,   4.96000,
,,,-00.000000119600,   4.96000,
,,,-00.000000119500,   4.96000,
,,,-00.000000119400,   4.96000,
,,,-00.000000119300,   4.96000,
,,,-00.000000119200,   4.96000,
,,,-00.000000119100,   4.96000,
,,,-00.000000119000,   4.96000,
,,,-00.000000118900,   4.96000,
,,,-00.000000118800,   4.96000,
,,,-00.000000118700,   4.96000,
,,,-00.000000118600,   4.88000,
,,,-00.000000118500,   4.88000,
,,,-00.000000118400,   4.88000,
,,,-00.000000118300,   4.88000,
,,,-00.000000118200,   4.88000,
,,,-00.000000118100,   4.88000,
,,,-00.000000118000,   4.88000,
,,,-00.000000117900,   4.88000,
,,,-00.000000117800,   4.88000,
,,,-00.000000117700,   4.88000,
,,,-00.000000117600,   4.88000,
,,,-00.000000117500,   4.88000,
,,,-00.000000117400,   4.88000,
,,,-00.000000117300,   4.88000,
,,,-00.000000117200,   4.88000,
,,,-00.000000117100,   4.88000,
,,,-00.000000117000,   4.88000,
,,,-00.000000116900,   4.96000,
,,,-00.000000116800,   4.96000,
,,,-00.000000116700,   4.96000,
,,,-00.000000116600,   4.96000,
,,,-00.000000116500,   4.96000,
,,,-00.000000116400,   4.96000,
,,,-00.000000116300,   4.96000,
,,,-00.000000116200,   4.96000,
,,,-00.000000116100,   4.96000,
,,,-00.000000116000,   4.96000,
,,,-00.000000115900,   4.96000,
,,,-00.000000115800,   4.96000,
,,,-00.000000115700,   4.96000,
,,,-00.000000115600,   4.88000,
,,,-00.000000115500,   4.88000,
,,,-00.000000115400,   4.88000,
,,,-00.000000115300,   4.88000,
,,,-00.000000115200,   4.88000,
,,,-00.000000115100,   4.88000,
,,,-00.000000115000,   4.88000,
,,,-00.000000114900,   4.88000,
,,,-00.000000114800,   4.88000,
,,,-00.000000114700,   4.88000,
,,,-00.000000114600,   4.88000,
,,,-00.000000114500,   4.88000,
,,,-00.000000114400,   4.88000,
,,,-00.000000114300,   4.88000,
,,,-00.000000114200,   4.88000,
,,,-00.000000114100,   4.88000,
,,,-00.000000114000,   4.88000,
,,,-00.000000113900,   4.96000,
,,,-00.000000113800,   4.96000,
,,,-00.000000113700,   4.96000,
,,,-00.000000113600,   4.88000,
,,,-00.000000113500,   4.88000,
,,,-00.000000113400,   4.88000,
,,,-00.000000113300,   4.88000,
,,,-00.000000113200,   4.88000,
,,,-00.000000113100,   4.88000,
,,,-00.000000113000,   4.88000,
,,,-00.000000112900,   4.88000,
,,,-00.000000112800,   4.88000,
,,,-00.000000112700,   4.88000,
,,,-00.000000112600,   4.88000,
,,,-00.000000112500,   4.88000,
,,,-00.000000112400,   4.80000,
,,,-00.000000112300,   4.80000,
,,,-00.000000112200,   4.80000,
,,,-00.000000112100,   4.88000,
,,,-00.000000112000,   4.88000,
,,,-00.000000111900,   4.88000,
,,,-00.000000111800,   4.88000,
,,,-00.000000111700,   4.88000,
,,,-00.000000111600,   4.88000,
,,,-00.000000111500,   4.88000,
,,,-00.000000111400,   4.88000,
,,,-00.000000111300,   4.88000,
,,,-00.000000111200,   4.88000,
,,,-00.000000111100,   4.88000,
,,,-00.000000111000,   4.88000,
,,,-00.000000110900,   4.96000,
,,,-00.000000110800,   4.96000,
,,,-00.000000110700,   4.96000,
,,,-00.000000110600,   4.88000,
,,,-00.000000110500,   4.88000,
,,,-00.000000110400,   4.88000,
,,,-00.000000110300,   4.88000,
,,,-00.000000110200,   4.88000,
,,,-00.000000110100,   4.88000,
,,,-00.000000110000,   4.88000,
,,,-00.000000109900,   4.88000,
,,,-00.000000109800,   4.88000,
,,,-00.000000109700,   4.88000,
,,,-00.000000109600,   4.88000,
,,,-00.000000109500,   4.88000,
,,,-00.000000109400,   4.80000,
,,,-00.000000109300,   4.80000,
,,,-00.000000109200,   4.80000,
,,,-00.000000109100,   4.88000,
,,,-00.000000109000,   4.88000,
,,,-00.000000108900,   4.88000,
,,,-00.000000108800,   4.88000,
,,,-00.000000108700,   4.88000,
,,,-00.000000108600,   4.88000,
,,,-00.000000108500,   4.88000,
,,,-00.000000108400,   4.88000,
,,,-00.000000108300,   4.88000,
,,,-00.000000108200,   4.88000,
,,,-00.000000108100,   4.88000,
,,,-00.000000108000,   4.88000,
,,,-00.000000107900,   4.96000,
,,,-00.000000107800,   4.96000,
,,,-00.000000107700,   4.96000,
,,,-00.000000107600,   4.96000,
,,,-00.000000107500,   4.96000,
,,,-00.000000107400,   4.96000,
,,,-00.000000107300,   4.96000,
,,,-00.000000107200,   4.96000,
,,,-00.000000107100,   4.96000,
,,,-00.000000107000,   4.96000,
,,,-00.000000106900,   4.96000,
,,,-00.000000106800,   4.96000,
,,,-00.000000106700,   4.96000,
,,,-00.000000106600,   4.88000,
,,,-00.000000106500,   4.88000,
,,,-00.000000106400,   4.88000,
,,,-00.000000106300,   4.88000,
,,,-00.000000106200,   4.88000,
,,,-00.000000106100,   4.88000,
,,,-00.000000106000,   4.88000,
,,,-00.000000105900,   4.88000,
,,,-00.000000105800,   4.88000,
,,,-00.000000105700,   4.88000,
,,,-00.000000105600,   4.88000,
,,,-00.000000105500,   4.88000,
,,,-00.000000105400,   4.88000,
,,,-00.000000105300,   4.88000,
,,,-00.000000105200,   4.88000,
,,,-00.000000105100,   4.88000,
,,,-00.000000105000,   4.88000,
,,,-00.000000104900,   4.96000,
,,,-00.000000104800,   4.96000,
,,,-00.000000104700,   4.96000,
,,,-00.000000104600,   4.88000,
,,,-00.000000104500,   4.88000,
,,,-00.000000104400,   4.88000,
,,,-00.000000104300,   4.88000,
,,,-00.000000104200,   4.88000,
,,,-00.000000104100,   4.88000,
,,,-00.000000104000,   4.88000,
,,,-00.000000103900,   4.88000,
,,,-00.000000103800,   4.88000,
,,,-00.000000103700,   4.88000,
,,,-00.000000103600,   4.88000,
,,,-00.000000103500,   4.88000,
,,,-00.000000103400,   4.88000,
,,,-00.000000103300,   4.88000,
,,,-00.000000103200,   4.88000,
,,,-00.000000103100,   4.88000,
,,,-00.000000103000,   4.88000,
,,,-00.000000102900,   4.96000,
,,,-00.000000102800,   4.96000,
,,,-00.000000102700,   4.96000,
,,,-00.000000102600,   4.96000,
,,,-00.000000102500,   4.96000,
,,,-00.000000102400,   4.96000,
,,,-00.000000102300,   4.96000,
,,,-00.000000102200,   4.96000,
,,,-00.000000102100,   4.96000,
,,,-00.000000102000,   4.96000,
,,,-00.000000101900,   4.96000,
,,,-00.000000101800,   4.96000,
,,,-00.000000101700,   4.96000,
,,,-00.000000101600,   4.96000,
,,,-00.000000101500,   4.96000,
,,,-00.000000101400,   4.96000,
,,,-00.000000101300,   4.96000,
,,,-00.000000101200,   4.96000,
,,,-00.000000101100,   4.96000,
,,,-00.000000101000,   4.96000,
,,,-00.000000100900,   4.96000,
,,,-00.000000100800,   4.96000,
,,,-00.000000100700,   4.96000,
,,,-00.000000100600,   4.96000,
,,,-00.000000100500,   4.96000,
,,,-00.000000100400,   4.96000,
,,,-00.000000100300,   4.96000,
,,,-00.000000100200,   4.96000,
,,,-00.000000100100,   4.96000,
,,,-00.000000100000,   4.96000,
,,,-00.000000099900,   4.96000,
,,,-00.000000099800,   4.96000,
,,,-00.000000099700,   4.96000,
,,,-00.000000099600,   4.96000,
,,,-00.000000099500,   4.96000,
,,,-00.000000099400,   4.96000,
,,,-00.000000099300,   4.96000,
,,,-00.000000099200,   4.96000,
,,,-00.000000099100,   4.96000,
,,,-00.000000099000,   4.96000,
,,,-00.000000098900,   4.96000,
,,,-00.000000098800,   4.96000,
,,,-00.000000098700,   4.96000,
,,,-00.000000098600,   4.96000,
,,,-00.000000098500,   4.96000,
,,,-00.000000098400,   4.96000,
,,,-00.000000098300,   4.96000,
,,,-00.000000098200,   4.96000,
,,,-00.000000098100,   4.96000,
,,,-00.000000098000,   4.96000,
,,,-00.000000097900,   4.96000,
,,,-00.000000097800,   4.96000,
,,,-00.000000097700,   4.96000,
,,,-00.000000097600,   4.88000,
,,,-00.000000097500,   4.88000,
,,,-00.000000097400,   4.88000,
,,,-00.000000097300,   4.88000,
,,,-00.000000097200,   4.88000,
,,,-00.000000097100,   4.88000,
,,,-00.000000097000,   4.88000,
,,,-00.000000096900,   4.88000,
,,,-00.000000096800,   4.88000,
,,,-00.000000096700,   4.88000,
,,,-00.000000096600,   4.88000,
,,,-00.000000096500,   4.88000,
,,,-00.000000096400,   4.88000,
,,,-00.000000096300,   4.88000,
,,,-00.000000096200,   4.88000,
,,,-00.000000096100,   4.88000,
,,,-00.000000096000,   4.88000,
,,,-00.000000095900,   4.88000,
,,,-00.000000095800,   4.88000,
,,,-00.000000095700,   4.88000,
,,,-00.000000095600,   4.88000,
,,,-00.000000095500,   4.88000,
,,,-00.000000095400,   4.88000,
,,,-00.000000095300,   4.88000,
,,,-00.000000095200,   4.88000,
,,,-00.000000095100,   4.88000,
,,,-00.000000095000,   4.88000,
,,,-00.000000094900,   4.88000,
,,,-00.000000094800,   4.88000,
,,,-00.000000094700,   4.88000,
,,,-00.000000094600,   4.88000,
,,,-00.000000094500,   4.88000,
,,,-00.000000094400,   4.88000,
,,,-00.000000094300,   4.88000,
,,,-00.000000094200,   4.88000,
,,,-00.000000094100,   4.88000,
,,,-00.000000094000,   4.88000,
,,,-00.000000093900,   4.96000,
,,,-00.000000093800,   4.96000,
,,,-00.000000093700,   4.96000,
,,,-00.000000093600,   4.96000,
,,,-00.000000093500,   4.96000,
,,,-00.000000093400,   4.96000,
,,,-00.000000093300,   4.96000,
,,,-00.000000093200,   4.96000,
,,,-00.000000093100,   4.96000,
,,,-00.000000093000,   4.96000,
,,,-00.000000092900,   4.96000,
,,,-00.000000092800,   4.96000,
,,,-00.000000092700,   4.96000,
,,,-00.000000092600,   4.88000,
,,,-00.000000092500,   4.88000,
,,,-00.000000092400,   4.88000,
,,,-00.000000092300,   4.88000,
,,,-00.000000092200,   4.88000,
,,,-00.000000092100,   4.88000,
,,,-00.000000092000,   4.88000,
,,,-00.000000091900,   4.88000,
,,,-00.000000091800,   4.88000,
,,,-00.000000091700,   4.88000,
,,,-00.000000091600,   4.88000,
,,,-00.000000091500,   4.88000,
,,,-00.000000091400,   4.88000,
,,,-00.000000091300,   4.88000,
,,,-00.000000091200,   4.88000,
,,,-00.000000091100,   4.88000,
,,,-00.000000091000,   4.88000,
,,,-00.000000090900,   4.96000,
,,,-00.000000090800,   4.96000,
,,,-00.000000090700,   4.96000,
,,,-00.000000090600,   4.96000,
,,,-00.000000090500,   4.96000,
,,,-00.000000090400,   4.96000,
,,,-00.000000090300,   4.96000,
,,,-00.000000090200,   4.96000,
,,,-00.000000090100,   4.96000,
,,,-00.000000090000,   4.96000,
,,,-00.000000089900,   4.96000,
,,,-00.000000089800,   4.96000,
,,,-00.000000089700,   4.96000,
,,,-00.000000089600,   4.96000,
,,,-00.000000089500,   4.96000,
,,,-00.000000089400,   4.96000,
,,,-00.000000089300,   4.96000,
,,,-00.000000089200,   4.96000,
,,,-00.000000089100,   4.96000,
,,,-00.000000089000,   4.96000,
,,,-00.000000088900,   4.96000,
,,,-00.000000088800,   4.96000,
,,,-00.000000088700,   4.96000,
,,,-00.000000088600,   4.96000,
,,,-00.000000088500,   4.96000,
,,,-00.000000088400,   4.96000,
,,,-00.000000088300,   4.96000,
,,,-00.000000088200,   4.96000,
,,,-00.000000088100,   4.96000,
,,,-00.000000088000,   4.96000,
,,,-00.000000087900,   4.96000,
,,,-00.000000087800,   4.96000,
,,,-00.000000087700,   4.96000,
,,,-00.000000087600,   4.88000,
,,,-00.000000087500,   4.88000,
,,,-00.000000087400,   4.88000,
,,,-00.000000087300,   4.88000,
,,,-00.000000087200,   4.88000,
,,,-00.000000087100,   4.88000,
,,,-00.000000087000,   4.88000,
,,,-00.000000086900,   4.88000,
,,,-00.000000086800,   4.88000,
,,,-00.000000086700,   4.88000,
,,,-00.000000086600,   4.88000,
,,,-00.000000086500,   4.88000,
,,,-00.000000086400,   4.88000,
,,,-00.000000086300,   4.88000,
,,,-00.000000086200,   4.88000,
,,,-00.000000086100,   4.88000,
,,,-00.000000086000,   4.88000,
,,,-00.000000085900,   4.88000,
,,,-00.000000085800,   4.96000,
,,,-00.000000085700,   4.96000,
,,,-00.000000085600,   4.96000,
,,,-00.000000085500,   4.96000,
,,,-00.000000085400,   4.96000,
,,,-00.000000085300,   4.96000,
,,,-00.000000085200,   4.96000,
,,,-00.000000085100,   4.96000,
,,,-00.000000085000,   5.04000,
,,,-00.000000084900,   5.04000,
,,,-00.000000084800,   5.04000,
,,,-00.000000084700,   5.04000,
,,,-00.000000084600,   5.04000,
,,,-00.000000084500,   4.96000,
,,,-00.000000084400,   4.96000,
,,,-00.000000084300,   4.96000,
,,,-00.000000084200,   4.96000,
,,,-00.000000084100,   4.96000,
,,,-00.000000084000,   4.96000,
,,,-00.000000083900,   4.96000,
,,,-00.000000083800,   4.96000,
,,,-00.000000083700,   4.96000,
,,,-00.000000083600,   4.88000,
,,,-00.000000083500,   4.88000,
,,,-00.000000083400,   4.88000,
,,,-00.000000083300,   4.88000,
,,,-00.000000083200,   4.88000,
,,,-00.000000083100,   4.88000,
,,,-00.000000083000,   4.88000,
,,,-00.000000082900,   4.88000,
,,,-00.000000082800,   4.88000,
,,,-00.000000082700,   4.88000,
,,,-00.000000082600,   4.88000,
,,,-00.000000082500,   4.88000,
,,,-00.000000082400,   4.80000,
,,,-00.000000082300,   4.80000,
,,,-00.000000082200,   4.80000,
,,,-00.000000082100,   4.88000,
,,,-00.000000082000,   4.88000,
,,,-00.000000081900,   4.88000,
,,,-00.000000081800,   4.88000,
,,,-00.000000081700,   4.88000,
,,,-00.000000081600,   4.88000,
,,,-00.000000081500,   4.88000,
,,,-00.000000081400,   4.88000,
,,,-00.000000081300,   4.88000,
,,,-00.000000081200,   4.88000,
,,,-00.000000081100,   4.88000,
,,,-00.000000081000,   4.88000,
,,,-00.000000080900,   4.96000,
,,,-00.000000080800,   4.96000,
,,,-00.000000080700,   4.96000,
,,,-00.000000080600,   4.96000,
,,,-00.000000080500,   4.96000,
,,,-00.000000080400,   4.96000,
,,,-00.000000080300,   4.96000,
,,,-00.000000080200,   4.96000,
,,,-00.000000080100,   4.96000,
,,,-00.000000080000,   4.96000,
,,,-00.000000079900,   4.96000,
,,,-00.000000079800,   4.96000,
,,,-00.000000079700,   4.96000,
,,,-00.000000079600,   4.88000,
,,,-00.000000079500,   4.88000,
,,,-00.000000079400,   4.88000,
,,,-00.000000079300,   4.88000,
,,,-00.000000079200,   4.88000,
,,,-00.000000079100,   4.88000,
,,,-00.000000079000,   4.88000,
,,,-00.000000078900,   4.88000,
,,,-00.000000078800,   4.88000,
,,,-00.000000078700,   4.88000,
,,,-00.000000078600,   4.88000,
,,,-00.000000078500,   4.88000,
,,,-00.000000078400,   4.88000,
,,,-00.000000078300,   4.88000,
,,,-00.000000078200,   4.88000,
,,,-00.000000078100,   4.88000,
,,,-00.000000078000,   4.88000,
,,,-00.000000077900,   4.96000,
,,,-00.000000077800,   4.96000,
,,,-00.000000077700,   4.96000,
,,,-00.000000077600,   4.96000,
,,,-00.000000077500,   4.96000,
,,,-00.000000077400,   4.96000,
,,,-00.000000077300,   4.96000,
,,,-00.000000077200,   4.96000,
,,,-00.000000077100,   4.96000,
,,,-00.000000077000,   4.96000,
,,,-00.000000076900,   4.96000,
,,,-00.000000076800,   4.96000,
,,,-00.000000076700,   4.96000,
,,,-00.000000076600,   4.88000,
,,,-00.000000076500,   4.88000,
,,,-00.000000076400,   4.88000,
,,,-00.000000076300,   4.88000,
,,,-00.000000076200,   4.88000,
,,,-00.000000076100,   4.88000,
,,,-00.000000076000,   4.88000,
,,,-00.000000075900,   4.88000,
,,,-00.000000075800,   4.88000,
,,,-00.000000075700,   4.88000,
,,,-00.000000075600,   4.88000,
,,,-00.000000075500,   4.88000,
,,,-00.000000075400,   4.88000,
,,,-00.000000075300,   4.88000,
,,,-00.000000075200,   4.88000,
,,,-00.000000075100,   4.88000,
,,,-00.000000075000,   4.88000,
,,,-00.000000074900,   4.96000,
,,,-00.000000074800,   4.96000,
,,,-00.000000074700,   4.96000,
,,,-00.000000074600,   4.96000,
,,,-00.000000074500,   4.96000,
,,,-00.000000074400,   4.96000,
,,,-00.000000074300,   4.96000,
,,,-00.000000074200,   4.96000,
,,,-00.000000074100,   4.96000,
,,,-00.000000074000,   4.96000,
,,,-00.000000073900,   4.96000,
,,,-00.000000073800,   4.96000,
,,,-00.000000073700,   4.96000,
,,,-00.000000073600,   4.96000,
,,,-00.000000073500,   4.96000,
,,,-00.000000073400,   4.96000,
,,,-00.000000073300,   4.96000,
,,,-00.000000073200,   4.96000,
,,,-00.000000073100,   4.96000,
,,,-00.000000073000,   4.96000,
,,,-00.000000072900,   4.96000,
,,,-00.000000072800,   4.96000,
,,,-00.000000072700,   4.96000,
,,,-00.000000072600,   4.96000,
,,,-00.000000072500,   4.96000,
,,,-00.000000072400,   4.96000,
,,,-00.000000072300,   4.96000,
,,,-00.000000072200,   4.96000,
,,,-00.000000072100,   4.96000,
,,,-00.000000072000,   4.96000,
,,,-00.000000071900,   4.96000,
,,,-00.000000071800,   4.96000,
,,,-00.000000071700,   4.96000,
,,,-00.000000071600,   4.88000,
,,,-00.000000071500,   4.88000,
,,,-00.000000071400,   4.88000,
,,,-00.000000071300,   4.88000,
,,,-00.000000071200,   4.88000,
,,,-00.000000071100,   4.88000,
,,,-00.000000071000,   4.88000,
,,,-00.000000070900,   4.88000,
,,,-00.000000070800,   4.88000,
,,,-00.000000070700,   4.88000,
,,,-00.000000070600,   4.88000,
,,,-00.000000070500,   4.88000,
,,,-00.000000070400,   4.88000,
,,,-00.000000070300,   4.88000,
,,,-00.000000070200,   4.88000,
,,,-00.000000070100,   4.88000,
,,,-00.000000070000,   4.88000,
,,,-00.000000069900,   4.96000,
,,,-00.000000069800,   4.96000,
,,,-00.000000069700,   4.96000,
,,,-00.000000069600,   4.96000,
,,,-00.000000069500,   4.96000,
,,,-00.000000069400,   4.96000,
,,,-00.000000069300,   4.96000,
,,,-00.000000069200,   4.96000,
,,,-00.000000069100,   4.96000,
,,,-00.000000069000,   4.96000,
,,,-00.000000068900,   4.96000,
,,,-00.000000068800,   4.96000,
,,,-00.000000068700,   4.96000,
,,,-00.000000068600,   4.88000,
,,,-00.000000068500,   4.88000,
,,,-00.000000068400,   4.88000,
,,,-00.000000068300,   4.88000,
,,,-00.000000068200,   4.88000,
,,,-00.000000068100,   4.88000,
,,,-00.000000068000,   4.88000,
,,,-00.000000067900,   4.88000,
,,,-00.000000067800,   4.88000,
,,,-00.000000067700,   4.88000,
,,,-00.000000067600,   4.88000,
,,,-00.000000067500,   4.88000,
,,,-00.000000067400,   4.88000,
,,,-00.000000067300,   4.88000,
,,,-00.000000067200,   4.88000,
,,,-00.000000067100,   4.88000,
,,,-00.000000067000,   4.88000,
,,,-00.000000066900,   4.88000,
,,,-00.000000066800,   4.88000,
,,,-00.000000066700,   4.88000,
,,,-00.000000066600,   4.88000,
,,,-00.000000066500,   4.88000,
,,,-00.000000066400,   4.88000,
,,,-00.000000066300,   4.88000,
,,,-00.000000066200,   4.88000,
,,,-00.000000066100,   4.88000,
,,,-00.000000066000,   4.88000,
,,,-00.000000065900,   4.88000,
,,,-00.000000065800,   4.88000,
,,,-00.000000065700,   4.88000,
,,,-00.000000065600,   4.88000,
,,,-00.000000065500,   4.88000,
,,,-00.000000065400,   4.88000,
,,,-00.000000065300,   4.88000,
,,,-00.000000065200,   4.88000,
,,,-00.000000065100,   4.88000,
,,,-00.000000065000,   4.88000,
,,,-00.000000064900,   4.96000,
,,,-00.000000064800,   4.96000,
,,,-00.000000064700,   4.96000,
,,,-00.000000064600,   4.96000,
,,,-00.000000064500,   4.96000,
,,,-00.000000064400,   4.96000,
,,,-00.000000064300,   4.96000,
,,,-00.000000064200,   4.96000,
,,,-00.000000064100,   4.96000,
,,,-00.000000064000,   4.96000,
,,,-00.000000063900,   4.96000,
,,,-00.000000063800,   4.96000,
,,,-00.000000063700,   4.96000,
,,,-00.000000063600,   4.88000,
,,,-00.000000063500,   4.88000,
,,,-00.000000063400,   4.88000,
,,,-00.000000063300,   4.88000,
,,,-00.000000063200,   4.88000,
,,,-00.000000063100,   4.88000,
,,,-00.000000063000,   4.88000,
,,,-00.000000062900,   4.88000,
,,,-00.000000062800,   4.88000,
,,,-00.000000062700,   4.88000,
,,,-00.000000062600,   4.88000,
,,,-00.000000062500,   4.88000,
,,,-00.000000062400,   4.88000,
,,,-00.000000062300,   4.88000,
,,,-00.000000062200,   4.88000,
,,,-00.000000062100,   4.88000,
,,,-00.000000062000,   4.88000,
,,,-00.000000061900,   4.96000,
,,,-00.000000061800,   4.96000,
,,,-00.000000061700,   4.96000,
,,,-00.000000061600,   4.96000,
,,,-00.000000061500,   4.96000,
,,,-00.000000061400,   4.96000,
,,,-00.000000061300,   4.96000,
,,,-00.000000061200,   4.96000,
,,,-00.000000061100,   4.96000,
,,,-00.000000061000,   4.96000,
,,,-00.000000060900,   4.96000,
,,,-00.000000060800,   4.96000,
,,,-00.000000060700,   4.96000,
,,,-00.000000060600,   4.88000,
,,,-00.000000060500,   4.88000,
,,,-00.000000060400,   4.88000,
,,,-00.000000060300,   4.88000,
,,,-00.000000060200,   4.88000,
,,,-00.000000060100,   4.88000,
,,,-00.000000060000,   4.88000,
,,,-00.000000059900,   4.88000,
,,,-00.000000059800,   4.88000,
,,,-00.000000059700,   4.88000,
,,,-00.000000059600,   4.88000,
,,,-00.000000059500,   4.88000,
,,,-00.000000059400,   4.80000,
,,,-00.000000059300,   4.80000,
,,,-00.000000059200,   4.80000,
,,,-00.000000059100,   4.88000,
,,,-00.000000059000,   4.88000,
,,,-00.000000058900,   4.88000,
,,,-00.000000058800,   4.88000,
,,,-00.000000058700,   4.88000,
,,,-00.000000058600,   4.88000,
,,,-00.000000058500,   4.88000,
,,,-00.000000058400,   4.88000,
,,,-00.000000058300,   4.88000,
,,,-00.000000058200,   4.88000,
,,,-00.000000058100,   4.88000,
,,,-00.000000058000,   4.88000,
,,,-00.000000057900,   4.96000,
,,,-00.000000057800,   4.96000,
,,,-00.000000057700,   4.96000,
,,,-00.000000057600,   4.96000,
,,,-00.000000057500,   4.96000,
,,,-00.000000057400,   4.96000,
,,,-00.000000057300,   4.96000,
,,,-00.000000057200,   4.96000,
,,,-00.000000057100,   4.96000,
,,,-00.000000057000,   4.96000,
,,,-00.000000056900,   4.96000,
,,,-00.000000056800,   4.96000,
,,,-00.000000056700,   4.96000,
,,,-00.000000056600,   4.88000,
,,,-00.000000056500,   4.88000,
,,,-00.000000056400,   4.88000,
,,,-00.000000056300,   4.88000,
,,,-00.000000056200,   4.88000,
,,,-00.000000056100,   4.88000,
,,,-00.000000056000,   4.88000,
,,,-00.000000055900,   4.88000,
,,,-00.000000055800,   4.88000,
,,,-00.000000055700,   4.88000,
,,,-00.000000055600,   4.88000,
,,,-00.000000055500,   4.88000,
,,,-00.000000055400,   4.88000,
,,,-00.000000055300,   4.88000,
,,,-00.000000055200,   4.88000,
,,,-00.000000055100,   4.88000,
,,,-00.000000055000,   4.88000,
,,,-00.000000054900,   4.88000,
,,,-00.000000054800,   4.96000,
,,,-00.000000054700,   4.96000,
,,,-00.000000054600,   4.96000,
,,,-00.000000054500,   4.96000,
,,,-00.000000054400,   4.96000,
,,,-00.000000054300,   4.96000,
,,,-00.000000054200,   4.96000,
,,,-00.000000054100,   4.96000,
,,,-00.000000054000,   5.04000,
,,,-00.000000053900,   5.04000,
,,,-00.000000053800,   5.04000,
,,,-00.000000053700,   5.04000,
,,,-00.000000053600,   5.04000,
,,,-00.000000053500,   4.96000,
,,,-00.000000053400,   4.96000,
,,,-00.000000053300,   4.96000,
,,,-00.000000053200,   4.96000,
,,,-00.000000053100,   4.96000,
,,,-00.000000053000,   4.96000,
,,,-00.000000052900,   4.96000,
,,,-00.000000052800,   4.96000,
,,,-00.000000052700,   4.88000,
,,,-00.000000052600,   4.88000,
,,,-00.000000052500,   4.88000,
,,,-00.000000052400,   4.88000,
,,,-00.000000052300,   4.88000,
,,,-00.000000052200,   4.88000,
,,,-00.000000052100,   4.88000,
,,,-00.000000052000,   4.88000,
,,,-00.000000051900,   4.88000,
,,,-00.000000051800,   4.88000,
,,,-00.000000051700,   4.88000,
,,,-00.000000051600,   4.88000,
,,,-00.000000051500,   4.88000,
,,,-00.000000051400,   4.88000,
,,,-00.000000051300,   4.88000,
,,,-00.000000051200,   4.88000,
,,,-00.000000051100,   4.88000,
,,,-00.000000051000,   4.88000,
,,,-00.000000050900,   4.96000,
,,,-00.000000050800,   4.96000,
,,,-00.000000050700,   4.96000,
,,,-00.000000050600,   4.88000,
,,,-00.000000050500,   4.88000,
,,,-00.000000050400,   4.88000,
,,,-00.000000050300,   4.88000,
,,,-00.000000050200,   4.88000,
,,,-00.000000050100,   4.88000,
,,,-00.000000050000,   4.88000,
,,,-00.000000049900,   4.88000,
,,,-00.000000049800,   4.88000,
,,,-00.000000049700,   4.88000,
,,,-00.000000049600,   4.88000,
,,,-00.000000049500,   4.88000,
,,,-00.000000049400,   4.88000,
,,,-00.000000049300,   4.88000,
,,,-00.000000049200,   4.88000,
,,,-00.000000049100,   4.88000,
,,,-00.000000049000,   4.88000,
,,,-00.000000048900,   4.96000,
,,,-00.000000048800,   4.96000,
,,,-00.000000048700,   4.96000,
,,,-00.000000048600,   4.96000,
,,,-00.000000048500,   4.96000,
,,,-00.000000048400,   4.96000,
,,,-00.000000048300,   4.96000,
,,,-00.000000048200,   4.96000,
,,,-00.000000048100,   4.96000,
,,,-00.000000048000,   4.96000,
,,,-00.000000047900,   4.96000,
,,,-00.000000047800,   4.96000,
,,,-00.000000047700,   4.96000,
,,,-00.000000047600,   4.96000,
,,,-00.000000047500,   4.96000,
,,,-00.000000047400,   4.96000,
,,,-00.000000047300,   4.96000,
,,,-00.000000047200,   4.96000,
,,,-00.000000047100,   4.96000,
,,,-00.000000047000,   4.96000,
,,,-00.000000046900,   4.96000,
,,,-00.000000046800,   4.96000,
,,,-00.000000046700,   4.96000,
,,,-00.000000046600,   4.88000,
,,,-00.000000046500,   4.88000,
,,,-00.000000046400,   4.88000,
,,,-00.000000046300,   4.88000,
,,,-00.000000046200,   4.88000,
,,,-00.000000046100,   4.88000,
,,,-00.000000046000,   4.88000,
,,,-00.000000045900,   4.88000,
,,,-00.000000045800,   4.88000,
,,,-00.000000045700,   4.88000,
,,,-00.000000045600,   4.80000,
,,,-00.000000045500,   4.80000,
,,,-00.000000045400,   4.80000,
,,,-00.000000045300,   4.80000,
,,,-00.000000045200,   4.80000,
,,,-00.000000045100,   4.80000,
,,,-00.000000045000,   4.80000,
,,,-00.000000044900,   4.88000,
,,,-00.000000044800,   4.88000,
,,,-00.000000044700,   4.88000,
,,,-00.000000044600,   4.88000,
,,,-00.000000044500,   4.88000,
,,,-00.000000044400,   4.88000,
,,,-00.000000044300,   4.96000,
,,,-00.000000044200,   4.96000,
,,,-00.000000044100,   4.96000,
,,,-00.000000044000,   4.96000,
,,,-00.000000043900,   4.96000,
,,,-00.000000043800,   5.04000,
,,,-00.000000043700,   5.04000,
,,,-00.000000043600,   5.04000,
,,,-00.000000043500,   4.96000,
,,,-00.000000043400,   4.96000,
,,,-00.000000043300,   4.96000,
,,,-00.000000043200,   4.96000,
,,,-00.000000043100,   4.96000,
,,,-00.000000043000,   4.96000,
,,,-00.000000042900,   4.96000,
,,,-00.000000042800,   4.96000,
,,,-00.000000042700,   4.96000,
,,,-00.000000042600,   4.96000,
,,,-00.000000042500,   4.96000,
,,,-00.000000042400,   4.96000,
,,,-00.000000042300,   4.96000,
,,,-00.000000042200,   4.96000,
,,,-00.000000042100,   4.96000,
,,,-00.000000042000,   4.96000,
,,,-00.000000041900,   4.96000,
,,,-00.000000041800,   4.96000,
,,,-00.000000041700,   4.96000,
,,,-00.000000041600,   4.88000,
,,,-00.000000041500,   4.88000,
,,,-00.000000041400,   4.88000,
,,,-00.000000041300,   4.88000,
,,,-00.000000041200,   4.88000,
,,,-00.000000041100,   4.88000,
,,,-00.000000041000,   4.88000,
,,,-00.000000040900,   4.88000,
,,,-00.000000040800,   4.88000,
,,,-00.000000040700,   4.88000,
,,,-00.000000040600,   4.88000,
,,,-00.000000040500,   4.88000,
,,,-00.000000040400,   4.88000,
,,,-00.000000040300,   4.88000,
,,,-00.000000040200,   4.88000,
,,,-00.000000040100,   4.88000,
,,,-00.000000040000,   4.88000,
,,,-00.000000039900,   4.96000,
,,,-00.000000039800,   4.96000,
,,,-00.000000039700,   4.96000,
,,,-00.000000039600,   4.96000,
,,,-00.000000039500,   4.96000,
,,,-00.000000039400,   4.96000,
,,,-00.000000039300,   4.96000,
,,,-00.000000039200,   4.96000,
,,,-00.000000039100,   4.96000,
,,,-00.000000039000,   4.96000,
,,,-00.000000038900,   4.96000,
,,,-00.000000038800,   4.96000,
,,,-00.000000038700,   4.96000,
,,,-00.000000038600,   4.96000,
,,,-00.000000038500,   4.96000,
,,,-00.000000038400,   4.96000,
,,,-00.000000038300,   4.96000,
,,,-00.000000038200,   4.96000,
,,,-00.000000038100,   4.96000,
,,,-00.000000038000,   4.96000,
,,,-00.000000037900,   4.96000,
,,,-00.000000037800,   4.96000,
,,,-00.000000037700,   4.96000,
,,,-00.000000037600,   4.96000,
,,,-00.000000037500,   4.96000,
,,,-00.000000037400,   4.96000,
,,,-00.000000037300,   4.96000,
,,,-00.000000037200,   4.96000,
,,,-00.000000037100,   4.96000,
,,,-00.000000037000,   4.96000,
,,,-00.000000036900,   4.96000,
,,,-00.000000036800,   4.96000,
,,,-00.000000036700,   4.96000,
,,,-00.000000036600,   4.96000,
,,,-00.000000036500,   4.96000,
,,,-00.000000036400,   4.96000,
,,,-00.000000036300,   4.96000,
,,,-00.000000036200,   4.96000,
,,,-00.000000036100,   4.96000,
,,,-00.000000036000,   4.96000,
,,,-00.000000035900,   5.04000,
,,,-00.000000035800,   5.04000,
,,,-00.000000035700,   5.04000,
,,,-00.000000035600,   5.04000,
,,,-00.000000035500,   4.96000,
,,,-00.000000035400,   4.96000,
,,,-00.000000035300,   4.96000,
,,,-00.000000035200,   4.96000,
,,,-00.000000035100,   4.96000,
,,,-00.000000035000,   4.96000,
,,,-00.000000034900,   4.96000,
,,,-00.000000034800,   4.96000,
,,,-00.000000034700,   4.88000,
,,,-00.000000034600,   4.88000,
,,,-00.000000034500,   4.88000,
,,,-00.000000034400,   4.88000,
,,,-00.000000034300,   4.88000,
,,,-00.000000034200,   4.88000,
,,,-00.000000034100,   4.88000,
,,,-00.000000034000,   4.88000,
,,,-00.000000033900,   4.88000,
,,,-00.000000033800,   4.88000,
,,,-00.000000033700,   4.88000,
,,,-00.000000033600,   4.88000,
,,,-00.000000033500,   4.88000,
,,,-00.000000033400,   4.88000,
,,,-00.000000033300,   4.96000,
,,,-00.000000033200,   4.96000,
,,,-00.000000033100,   4.96000,
,,,-00.000000033000,   4.96000,
,,,-00.000000032900,   4.96000,
,,,-00.000000032800,   5.04000,
,,,-00.000000032700,   5.04000,
,,,-00.000000032600,   5.04000,
,,,-00.000000032500,   5.04000,
,,,-00.000000032400,   4.96000,
,,,-00.000000032300,   4.96000,
,,,-00.000000032200,   4.96000,
,,,-00.000000032100,   4.96000,
,,,-00.000000032000,   4.96000,
,,,-00.000000031900,   4.96000,
,,,-00.000000031800,   4.96000,
,,,-00.000000031700,   4.88000,
,,,-00.000000031600,   4.88000,
,,,-00.000000031500,   4.88000,
,,,-00.000000031400,   4.88000,
,,,-00.000000031300,   4.88000,
,,,-00.000000031200,   4.88000,
,,,-00.000000031100,   4.88000,
,,,-00.000000031000,   4.88000,
,,,-00.000000030900,   4.88000,
,,,-00.000000030800,   4.88000,
,,,-00.000000030700,   4.88000,
,,,-00.000000030600,   4.88000,
,,,-00.000000030500,   4.88000,
,,,-00.000000030400,   4.88000,
,,,-00.000000030300,   4.88000,
,,,-00.000000030200,   4.88000,
,,,-00.000000030100,   4.88000,
,,,-00.000000030000,   4.88000,
,,,-00.000000029900,   4.96000,
,,,-00.000000029800,   4.96000,
,,,-00.000000029700,   4.96000,
,,,-00.000000029600,   4.88000,
,,,-00.000000029500,   4.88000,
,,,-00.000000029400,   4.88000,
,,,-00.000000029300,   4.88000,
,,,-00.000000029200,   4.88000,
,,,-00.000000029100,   4.88000,
,,,-00.000000029000,   4.88000,
,,,-00.000000028900,   4.88000,
,,,-00.000000028800,   4.88000,
,,,-00.000000028700,   4.88000,
,,,-00.000000028600,   4.88000,
,,,-00.000000028500,   4.88000,
,,,-00.000000028400,   4.88000,
,,,-00.000000028300,   4.88000,
,,,-00.000000028200,   4.88000,
,,,-00.000000028100,   4.88000,
,,,-00.000000028000,   4.88000,
,,,-00.000000027900,   4.96000,
,,,-00.000000027800,   4.96000,
,,,-00.000000027700,   4.96000,
,,,-00.000000027600,   4.96000,
,,,-00.000000027500,   4.96000,
,,,-00.000000027400,   4.96000,
,,,-00.000000027300,   4.96000,
,,,-00.000000027200,   4.96000,
,,,-00.000000027100,   4.96000,
,,,-00.000000027000,   4.96000,
,,,-00.000000026900,   4.96000,
,,,-00.000000026800,   4.96000,
,,,-00.000000026700,   4.96000,
,,,-00.000000026600,   4.96000,
,,,-00.000000026500,   4.96000,
,,,-00.000000026400,   4.96000,
,,,-00.000000026300,   4.96000,
,,,-00.000000026200,   4.96000,
,,,-00.000000026100,   4.96000,
,,,-00.000000026000,   4.96000,
,,,-00.000000025900,   5.04000,
,,,-00.000000025800,   5.04000,
,,,-00.000000025700,   5.04000,
,,,-00.000000025600,   4.96000,
,,,-00.000000025500,   4.96000,
,,,-00.000000025400,   4.96000,
,,,-00.000000025300,   4.96000,
,,,-00.000000025200,   4.96000,
,,,-00.000000025100,   4.96000,
,,,-00.000000025000,   4.96000,
,,,-00.000000024900,   4.96000,
,,,-00.000000024800,   4.96000,
,,,-00.000000024700,   4.96000,
,,,-00.000000024600,   4.96000,
,,,-00.000000024500,   4.96000,
,,,-00.000000024400,   4.96000,
,,,-00.000000024300,   4.96000,
,,,-00.000000024200,   4.96000,
,,,-00.000000024100,   4.96000,
,,,-00.000000024000,   4.96000,
,,,-00.000000023900,   4.96000,
,,,-00.000000023800,   4.96000,
,,,-00.000000023700,   4.96000,
,,,-00.000000023600,   4.96000,
,,,-00.000000023500,   4.96000,
,,,-00.000000023400,   4.96000,
,,,-00.000000023300,   4.96000,
,,,-00.000000023200,   4.96000,
,,,-00.000000023100,   4.96000,
,,,-00.000000023000,   4.96000,
,,,-00.000000022900,   4.96000,
,,,-00.000000022800,   4.96000,
,,,-00.000000022700,   4.96000,
,,,-00.000000022600,   4.96000,
,,,-00.000000022500,   4.96000,
,,,-00.000000022400,   4.96000,
,,,-00.000000022300,   4.96000,
,,,-00.000000022200,   4.96000,
,,,-00.000000022100,   4.96000,
,,,-00.000000022000,   4.96000,
,,,-00.000000021900,   4.96000,
,,,-00.000000021800,   4.96000,
,,,-00.000000021700,   4.96000,
,,,-00.000000021600,   4.88000,
,,,-00.000000021500,   4.88000,
,,,-00.000000021400,   4.88000,
,,,-00.000000021300,   4.88000,
,,,-00.000000021200,   4.88000,
,,,-00.000000021100,   4.88000,
,,,-00.000000021000,   4.88000,
,,,-00.000000020900,   4.88000,
,,,-00.000000020800,   4.88000,
,,,-00.000000020700,   4.88000,
,,,-00.000000020600,   4.88000,
,,,-00.000000020500,   4.88000,
,,,-00.000000020400,   4.88000,
,,,-00.000000020300,   4.88000,
,,,-00.000000020200,   4.88000,
,,,-00.000000020100,   4.88000,
,,,-00.000000020000,   4.88000,
,,,-00.000000019900,   4.96000,
,,,-00.000000019800,   4.96000,
,,,-00.000000019700,   4.96000,
,,,-00.000000019600,   4.88000,
,,,-00.000000019500,   4.88000,
,,,-00.000000019400,   4.88000,
,,,-00.000000019300,   4.88000,
,,,-00.000000019200,   4.88000,
,,,-00.000000019100,   4.88000,
,,,-00.000000019000,   4.88000,
,,,-00.000000018900,   4.88000,
,,,-00.000000018800,   4.88000,
,,,-00.000000018700,   4.88000,
,,,-00.000000018600,   4.88000,
,,,-00.000000018500,   4.88000,
,,,-00.000000018400,   4.80000,
,,,-00.000000018300,   4.80000,
,,,-00.000000018200,   4.80000,
,,,-00.000000018100,   4.88000,
,,,-00.000000018000,   4.88000,
,,,-00.000000017900,   4.88000,
,,,-00.000000017800,   4.88000,
,,,-00.000000017700,   4.88000,
,,,-00.000000017600,   4.88000,
,,,-00.000000017500,   4.88000,
,,,-00.000000017400,   4.88000,
,,,-00.000000017300,   4.88000,
,,,-00.000000017200,   4.88000,
,,,-00.000000017100,   4.88000,
,,,-00.000000017000,   4.88000,
,,,-00.000000016900,   4.96000,
,,,-00.000000016800,   4.96000,
,,,-00.000000016700,   4.96000,
,,,-00.000000016600,   4.96000,
,,,-00.000000016500,   4.96000,
,,,-00.000000016400,   4.96000,
,,,-00.000000016300,   4.96000,
,,,-00.000000016200,   4.96000,
,,,-00.000000016100,   4.96000,
,,,-00.000000016000,   4.96000,
,,,-00.000000015900,   4.96000,
,,,-00.000000015800,   4.96000,
,,,-00.000000015700,   4.96000,
,,,-00.000000015600,   4.88000,
,,,-00.000000015500,   4.88000,
,,,-00.000000015400,   4.88000,
,,,-00.000000015300,   4.88000,
,,,-00.000000015200,   4.88000,
,,,-00.000000015100,   4.88000,
,,,-00.000000015000,   4.88000,
,,,-00.000000014900,   4.88000,
,,,-00.000000014800,   4.88000,
,,,-00.000000014700,   4.88000,
,,,-00.000000014600,   4.88000,
,,,-00.000000014500,   4.88000,
,,,-00.000000014400,   4.88000,
,,,-00.000000014300,   4.88000,
,,,-00.000000014200,   4.88000,
,,,-00.000000014100,   4.88000,
,,,-00.000000014000,   4.88000,
,,,-00.000000013900,   4.88000,
,,,-00.000000013800,   4.88000,
,,,-00.000000013700,   4.88000,
,,,-00.000000013600,   4.88000,
,,,-00.000000013500,   4.88000,
,,,-00.000000013400,   4.88000,
,,,-00.000000013300,   4.88000,
,,,-00.000000013200,   4.88000,
,,,-00.000000013100,   4.88000,
,,,-00.000000013000,   4.88000,
,,,-00.000000012900,   4.88000,
,,,-00.000000012800,   4.88000,
,,,-00.000000012700,   4.88000,
,,,-00.000000012600,   4.80000,
,,,-00.000000012500,   4.80000,
,,,-00.000000012400,   4.80000,
,,,-00.000000012300,   4.80000,
,,,-00.000000012200,   4.80000,
,,,-00.000000012100,   4.80000,
,,,-00.000000012000,   4.80000,
,,,-00.000000011900,   4.80000,
,,,-00.000000011800,   4.80000,
,,,-00.000000011700,   4.80000,
,,,-00.000000011600,   4.80000,
,,,-00.000000011500,   4.80000,
,,,-00.000000011400,   4.80000,
,,,-00.000000011300,   4.80000,
,,,-00.000000011200,   4.80000,
,,,-00.000000011100,   4.80000,
,,,-00.000000011000,   4.80000,
,,,-00.000000010900,   4.80000,
,,,-00.000000010800,   4.80000,
,,,-00.000000010700,   4.80000,
,,,-00.000000010600,   4.80000,
,,,-00.000000010500,   4.80000,
,,,-00.000000010400,   4.80000,
,,,-00.000000010300,   4.80000,
,,,-00.000000010200,   4.80000,
,,,-00.000000010100,   4.80000,
,,,-00.000000010000,   4.80000,
,,,-00.000000009900,   4.80000,
,,,-00.000000009800,   4.80000,
,,,-00.000000009700,   4.80000,
,,,-00.000000009600,   4.80000,
,,,-00.000000009500,   4.80000,
,,,-00.000000009400,   4.80000,
,,,-00.000000009300,   4.80000,
,,,-00.000000009200,   4.80000,
,,,-00.000000009100,   4.80000,
,,,-00.000000009000,   4.80000,
,,,-00.000000008900,   4.80000,
,,,-00.000000008800,   4.80000,
,,,-00.000000008700,   4.80000,
,,,-00.000000008600,   4.80000,
,,,-00.000000008500,   4.80000,
,,,-00.000000008400,   4.80000,
,,,-00.000000008300,   4.80000,
,,,-00.000000008200,   4.80000,
,,,-00.000000008100,   4.80000,
,,,-00.000000008000,   4.80000,
,,,-00.000000007900,   4.80000,
,,,-00.000000007800,   4.80000,
,,,-00.000000007700,   4.72000,
,,,-00.000000007600,   4.72000,
,,,-00.000000007500,   4.72000,
,,,-00.000000007400,   4.72000,
,,,-00.000000007300,   4.72000,
,,,-00.000000007200,   4.64000,
,,,-00.000000007100,   4.64000,
,,,-00.000000007000,   4.64000,
,,,-00.000000006900,   4.64000,
,,,-00.000000006800,   4.64000,
,,,-00.000000006700,   4.64000,
,,,-00.000000006600,   4.56000,
,,,-00.000000006500,   4.56000,
,,,-00.000000006400,   4.56000,
,,,-00.000000006300,   4.56000,
,,,-00.000000006200,   4.56000,
,,,-00.000000006100,   4.56000,
,,,-00.000000006000,   4.56000,
,,,-00.000000005900,   4.64000,
,,,-00.000000005800,   4.64000,
,,,-00.000000005700,   4.64000,
,,,-00.000000005600,   4.64000,
,,,-00.000000005500,   4.64000,
,,,-00.000000005400,   4.64000,
,,,-00.000000005300,   4.64000,
,,,-00.000000005200,   4.64000,
,,,-00.000000005100,   4.64000,
,,,-00.000000005000,   4.64000,
,,,-00.000000004900,   4.72000,
,,,-00.000000004800,   4.72000,
,,,-00.000000004700,   4.72000,
,,,-00.000000004600,   4.64000,
,,,-00.000000004500,   4.64000,
,,,-00.000000004400,   4.64000,
,,,-00.000000004300,   4.64000,
,,,-00.000000004200,   4.64000,
,,,-00.000000004100,   4.64000,
,,,-00.000000004000,   4.64000,
,,,-00.000000003900,   4.64000,
,,,-00.000000003800,   4.64000,
,,,-00.000000003700,   4.64000,
,,,-00.000000003600,   4.64000,
,,,-00.000000003500,   4.64000,
,,,-00.000000003400,   4.64000,
,,,-00.000000003300,   4.64000,
,,,-00.000000003200,   4.64000,
,,,-00.000000003100,   4.64000,
,,,-00.000000003000,   4.64000,
,,,-00.000000002900,   4.64000,
,,,-00.000000002800,   4.64000,
,,,-00.000000002700,   4.64000,
,,,-00.000000002600,   4.56000,
,,,-00.000000002500,   4.56000,
,,,-00.000000002400,   4.56000,
,,,-00.000000002300,   4.56000,
,,,-00.000000002200,   4.56000,
,,,-00.000000002100,   4.56000,
,,,-00.000000002000,   4.56000,
,,,-00.000000001900,   4.56000,
,,,-00.000000001800,   4.56000,
,,,-00.000000001700,   4.56000,
,,,-00.000000001600,   4.56000,
,,,-00.000000001500,   4.56000,
,,,-00.000000001400,   4.56000,
,,,-00.000000001300,   4.56000,
,,,-00.000000001200,   4.56000,
,,,-00.000000001100,   4.56000,
,,,-00.000000001000,   4.56000,
,,,-00.000000000900,   4.56000,
,,,-00.000000000800,   4.56000,
,,,-00.000000000700,   4.48000,
,,,-00.000000000600,   4.48000,
,,,-00.000000000500,   4.48000,
,,,-00.000000000400,   4.48000,
,,,-00.000000000300,   4.48000,
,,,-00.000000000200,   4.40000,
,,,-00.000000000100,   4.40000,
,,,-00.000000000000,   4.40000,
,,,00.000000000100,   4.40000,
,,,00.000000000200,   4.40000,
,,,00.000000000300,   4.40000,
,,,00.000000000400,   4.40000,
,,,00.000000000500,   4.32000,
,,,00.000000000600,   4.32000,
,,,00.000000000700,   4.40000,
,,,00.000000000800,   4.40000,
,,,00.000000000900,   4.40000,
,,,00.000000001000,   4.40000,
,,,00.000000001100,   4.40000,
,,,00.000000001200,   4.40000,
,,,00.000000001300,   4.40000,
,,,00.000000001400,   4.40000,
,,,00.000000001500,   4.40000,
,,,00.000000001600,   4.40000,
,,,00.000000001700,   4.40000,
,,,00.000000001800,   4.40000,
,,,00.000000001900,   4.40000,
,,,00.000000002000,   4.40000,
,,,00.000000002100,   4.40000,
,,,00.000000002200,   4.40000,
,,,00.000000002300,   4.40000,
,,,00.000000002400,   4.40000,
,,,00.000000002500,   4.40000,
,,,00.000000002600,   4.40000,
,,,00.000000002700,   4.40000,
,,,00.000000002800,   4.40000,
,,,00.000000002900,   4.40000,
,,,00.000000003000,   4.40000,
,,,00.000000003100,   4.40000,
,,,00.000000003200,   4.40000,
,,,00.000000003300,   4.32000,
,,,00.000000003400,   4.32000,
,,,00.000000003500,   4.32000,
,,,00.000000003600,   4.32000,
,,,00.000000003700,   4.32000,
,,,00.000000003800,   4.24000,
,,,00.000000003900,   4.24000,
,,,00.000000004000,   4.24000,
,,,00.000000004100,   4.24000,
,,,00.000000004200,   4.24000,
,,,00.000000004300,   4.16000,
,,,00.000000004400,   4.16000,
,,,00.000000004500,   4.16000,
,,,00.000000004600,   4.16000,
,,,00.000000004700,   4.16000,
,,,00.000000004800,   4.16000,
,,,00.000000004900,   4.16000,
,,,00.000000005000,   4.16000,
,,,00.000000005100,   4.16000,
,,,00.000000005200,   4.16000,
,,,00.000000005300,   4.16000,
,,,00.000000005400,   4.16000,
,,,00.000000005500,   4.16000,
,,,00.000000005600,   4.16000,
,,,00.000000005700,   4.16000,
,,,00.000000005800,   4.16000,
,,,00.000000005900,   4.16000,
,,,00.000000006000,   4.16000,
,,,00.000000006100,   4.16000,
,,,00.000000006200,   4.16000,
,,,00.000000006300,   4.16000,
,,,00.000000006400,   4.16000,
,,,00.000000006500,   4.08000,
,,,00.000000006600,   4.08000,
,,,00.000000006700,   4.08000,
,,,00.000000006800,   4.08000,
,,,00.000000006900,   4.08000,
,,,00.000000007000,   4.08000,
,,,00.000000007100,   4.08000,
,,,00.000000007200,   4.08000,
,,,00.000000007300,   4.00000,
,,,00.000000007400,   4.00000,
,,,00.000000007500,   4.00000,
,,,00.000000007600,   4.00000,
,,,00.000000007700,   4.00000,
,,,00.000000007800,   3.92000,
,,,00.000000007900,   3.92000,
,,,00.000000008000,   3.92000,
,,,00.000000008100,   3.92000,
,,,00.000000008200,   3.92000,
,,,00.000000008300,   3.92000,
,,,00.000000008400,   3.92000,
,,,00.000000008500,   3.92000,
,,,00.000000008600,   3.92000,
,,,00.000000008700,   3.92000,
,,,00.000000008800,   3.92000,
,,,00.000000008900,   3.92000,
,,,00.000000009000,   3.92000,
,,,00.000000009100,   3.92000,
,,,00.000000009200,   3.92000,
,,,00.000000009300,   3.92000,
,,,00.000000009400,   3.84000,
,,,00.000000009500,   3.84000,
,,,00.000000009600,   3.84000,
,,,00.000000009700,   3.84000,
,,,00.000000009800,   3.84000,
,,,00.000000009900,   3.84000,
,,,00.000000010000,   3.84000,
,,,00.000000010100,   3.84000,
,,,00.000000010200,   3.84000,
,,,00.000000010300,   3.84000,
,,,00.000000010400,   3.76000,
,,,00.000000010500,   3.76000,
,,,00.000000010600,   3.76000,
,,,00.000000010700,   3.76000,
,,,00.000000010800,   3.76000,
,,,00.000000010900,   3.76000,
,,,00.000000011000,   3.76000,
,,,00.000000011100,   3.76000,
,,,00.000000011200,   3.76000,
,,,00.000000011300,   3.76000,
,,,00.000000011400,   3.76000,
,,,00.000000011500,   3.76000,
,,,00.000000011600,   3.76000,
,,,00.000000011700,   3.76000,
,,,00.000000011800,   3.76000,
,,,00.000000011900,   3.76000,
,,,00.000000012000,   3.76000,
,,,00.000000012100,   3.76000,
,,,00.000000012200,   3.76000,
,,,00.000000012300,   3.68000,
,,,00.000000012400,   3.68000,
,,,00.000000012500,   3.68000,
,,,00.000000012600,   3.68000,
,,,00.000000012700,   3.68000,
,,,00.000000012800,   3.68000,
,,,00.000000012900,   3.60000,
,,,00.000000013000,   3.60000,
,,,00.000000013100,   3.60000,
,,,00.000000013200,   3.60000,
,,,00.000000013300,   3.52000,
,,,00.000000013400,   3.52000,
,,,00.000000013500,   3.52000,
,,,00.000000013600,   3.52000,
,,,00.000000013700,   3.44000,
,,,00.000000013800,   3.44000,
,,,00.000000013900,   3.44000,
,,,00.000000014000,   3.44000,
,,,00.000000014100,   3.44000,
,,,00.000000014200,   3.44000,
,,,00.000000014300,   3.44000,
,,,00.000000014400,   3.44000,
,,,00.000000014500,   3.44000,
,,,00.000000014600,   3.44000,
,,,00.000000014700,   3.44000,
,,,00.000000014800,   3.44000,
,,,00.000000014900,   3.44000,
,,,00.000000015000,   3.44000,
,,,00.000000015100,   3.44000,
,,,00.000000015200,   3.44000,
,,,00.000000015300,   3.44000,
,,,00.000000015400,   3.44000,
,,,00.000000015500,   3.36000,
,,,00.000000015600,   3.36000,
,,,00.000000015700,   3.36000,
,,,00.000000015800,   3.36000,
,,,00.000000015900,   3.36000,
,,,00.000000016000,   3.36000,
,,,00.000000016100,   3.36000,
,,,00.000000016200,   3.36000,
,,,00.000000016300,   3.28000,
,,,00.000000016400,   3.28000,
,,,00.000000016500,   3.28000,
,,,00.000000016600,   3.28000,
,,,00.000000016700,   3.28000,
,,,00.000000016800,   3.20000,
,,,00.000000016900,   3.20000,
,,,00.000000017000,   3.20000,
,,,00.000000017100,   3.20000,
,,,00.000000017200,   3.20000,
,,,00.000000017300,   3.12000,
,,,00.000000017400,   3.12000,
,,,00.000000017500,   3.12000,
,,,00.000000017600,   3.12000,
,,,00.000000017700,   3.12000,
,,,00.000000017800,   3.12000,
,,,00.000000017900,   3.12000,
,,,00.000000018000,   3.12000,
,,,00.000000018100,   3.12000,
,,,00.000000018200,   3.12000,
,,,00.000000018300,   3.12000,
,,,00.000000018400,   3.04000,
,,,00.000000018500,   3.04000,
,,,00.000000018600,   3.04000,
,,,00.000000018700,   3.04000,
,,,00.000000018800,   3.04000,
,,,00.000000018900,   3.04000,
,,,00.000000019000,   3.04000,
,,,00.000000019100,   3.04000,
,,,00.000000019200,   3.04000,
,,,00.000000019300,   3.04000,
,,,00.000000019400,   2.96000,
,,,00.000000019500,   2.96000,
,,,00.000000019600,   2.96000,
,,,00.000000019700,   2.96000,
,,,00.000000019800,   2.96000,
,,,00.000000019900,   2.96000,
,,,00.000000020000,   2.96000,
,,,00.000000020100,   2.96000,
,,,00.000000020200,   2.96000,
,,,00.000000020300,   2.96000,
,,,00.000000020400,   2.88000,
,,,00.000000020500,   2.88000,
,,,00.000000020600,   2.88000,
,,,00.000000020700,   2.88000,
,,,00.000000020800,   2.88000,
,,,00.000000020900,   2.88000,
,,,00.000000021000,   2.88000,
,,,00.000000021100,   2.88000,
,,,00.000000021200,   2.88000,
,,,00.000000021300,   2.88000,
,,,00.000000021400,   2.80000,
,,,00.000000021500,   2.80000,
,,,00.000000021600,   2.80000,
,,,00.000000021700,   2.80000,
,,,00.000000021800,   2.80000,
,,,00.000000021900,   2.80000,
,,,00.000000022000,   2.80000,
,,,00.000000022100,   2.80000,
,,,00.000000022200,   2.80000,
,,,00.000000022300,   2.80000,
,,,00.000000022400,   2.72000,
,,,00.000000022500,   2.72000,
,,,00.000000022600,   2.72000,
,,,00.000000022700,   2.72000,
,,,00.000000022800,   2.72000,
,,,00.000000022900,   2.72000,
,,,00.000000023000,   2.72000,
,,,00.000000023100,   2.72000,
,,,00.000000023200,   2.72000,
,,,00.000000023300,   2.72000,
,,,00.000000023400,   2.64000,
,,,00.000000023500,   2.64000,
,,,00.000000023600,   2.64000,
,,,00.000000023700,   2.64000,
,,,00.000000023800,   2.64000,
,,,00.000000023900,   2.64000,
,,,00.000000024000,   2.64000,
,,,00.000000024100,   2.64000,
,,,00.000000024200,   2.64000,
,,,00.000000024300,   2.64000,
,,,00.000000024400,   2.64000,
,,,00.000000024500,   2.64000,
,,,00.000000024600,   2.64000,
,,,00.000000024700,   2.64000,
,,,00.000000024800,   2.64000,
,,,00.000000024900,   2.64000,
,,,00.000000025000,   2.64000,
,,,00.000000025100,   2.64000,
,,,00.000000025200,   2.64000,
,,,00.000000025300,   2.56000,
,,,00.000000025400,   2.56000,
,,,00.000000025500,   2.56000,
,,,00.000000025600,   2.56000,
,,,00.000000025700,   2.56000,
,,,00.000000025800,   2.48000,
,,,00.000000025900,   2.48000,
,,,00.000000026000,   2.48000,
,,,00.000000026100,   2.48000,
,,,00.000000026200,   2.48000,
,,,00.000000026300,   2.48000,
,,,00.000000026400,   2.40000,
,,,00.000000026500,   2.40000,
,,,00.000000026600,   2.40000,
,,,00.000000026700,   2.40000,
,,,00.000000026800,   2.40000,
,,,00.000000026900,   2.40000,
,,,00.000000027000,   2.40000,
,,,00.000000027100,   2.40000,
,,,00.000000027200,   2.40000,
,,,00.000000027300,   2.32000,
,,,00.000000027400,   2.32000,
,,,00.000000027500,   2.32000,
,,,00.000000027600,   2.24000,
,,,00.000000027700,   2.24000,
,,,00.000000027800,   2.24000,
,,,00.000000027900,   2.24000,
,,,00.000000028000,   2.16000,
,,,00.000000028100,   2.16000,
,,,00.000000028200,   2.16000,
,,,00.000000028300,   2.08000,
,,,00.000000028400,   2.08000,
,,,00.000000028500,   2.08000,
,,,00.000000028600,   2.08000,
,,,00.000000028700,   2.00000,
,,,00.000000028800,   2.00000,
,,,00.000000028900,   2.00000,
,,,00.000000029000,   2.00000,
,,,00.000000029100,   2.00000,
,,,00.000000029200,   2.00000,
,,,00.000000029300,   1.92000,
,,,00.000000029400,   1.92000,
,,,00.000000029500,   1.92000,
,,,00.000000029600,   1.92000,
,,,00.000000029700,   1.92000,
,,,00.000000029800,   1.92000,
,,,00.000000029900,   1.92000,
,,,00.000000030000,   1.92000,
,,,00.000000030100,   1.92000,
,,,00.000000030200,   1.92000,
,,,00.000000030300,   1.92000,
,,,00.000000030400,   1.92000,
,,,00.000000030500,   1.92000,
,,,00.000000030600,   1.92000,
,,,00.000000030700,   1.92000,
,,,00.000000030800,   1.92000,
,,,00.000000030900,   1.92000,
,,,00.000000031000,   1.92000,
,,,00.000000031100,   1.92000,
,,,00.000000031200,   1.92000,
,,,00.000000031300,   1.92000,
,,,00.000000031400,   1.92000,
,,,00.000000031500,   1.92000,
,,,00.000000031600,   1.92000,
,,,00.000000031700,   1.92000,
,,,00.000000031800,   1.92000,
,,,00.000000031900,   1.92000,
,,,00.000000032000,   1.92000,
,,,00.000000032100,   1.92000,
,,,00.000000032200,   1.92000,
,,,00.000000032300,   1.84000,
,,,00.000000032400,   1.84000,
,,,00.000000032500,   1.84000,
,,,00.000000032600,   1.84000,
,,,00.000000032700,   1.84000,
,,,00.000000032800,   1.84000,
,,,00.000000032900,   1.76000,
,,,00.000000033000,   1.76000,
,,,00.000000033100,   1.76000,
,,,00.000000033200,   1.76000,
,,,00.000000033300,   1.68000,
,,,00.000000033400,   1.68000,
,,,00.000000033500,   1.68000,
,,,00.000000033600,   1.68000,
,,,00.000000033700,   1.68000,
,,,00.000000033800,   1.60000,
,,,00.000000033900,   1.60000,
,,,00.000000034000,   1.60000,
,,,00.000000034100,   1.60000,
,,,00.000000034200,   1.60000,
,,,00.000000034300,   1.52000,
,,,00.000000034400,   1.52000,
,,,00.000000034500,   1.52000,
,,,00.000000034600,   1.52000,
,,,00.000000034700,   1.52000,
,,,00.000000034800,   1.52000,
,,,00.000000034900,   1.52000,
,,,00.000000035000,   1.52000,
,,,00.000000035100,   1.52000,
,,,00.000000035200,   1.52000,
,,,00.000000035300,   1.52000,
,,,00.000000035400,   1.44000,
,,,00.000000035500,   1.44000,
,,,00.000000035600,   1.44000,
,,,00.000000035700,   1.44000,
,,,00.000000035800,   1.44000,
,,,00.000000035900,   1.44000,
,,,00.000000036000,   1.44000,
,,,00.000000036100,   1.44000,
,,,00.000000036200,   1.44000,
,,,00.000000036300,   1.44000,
,,,00.000000036400,   1.36000,
,,,00.000000036500,   1.36000,
,,,00.000000036600,   1.36000,
,,,00.000000036700,   1.36000,
,,,00.000000036800,   1.36000,
,,,00.000000036900,   1.36000,
,,,00.000000037000,   1.36000,
,,,00.000000037100,   1.36000,
,,,00.000000037200,   1.36000,
,,,00.000000037300,   1.36000,
,,,00.000000037400,   1.36000,
,,,00.000000037500,   1.36000,
,,,00.000000037600,   1.36000,
,,,00.000000037700,   1.36000,
,,,00.000000037800,   1.36000,
,,,00.000000037900,   1.36000,
,,,00.000000038000,   1.36000,
,,,00.000000038100,   1.36000,
,,,00.000000038200,   1.36000,
,,,00.000000038300,   1.28000,
,,,00.000000038400,   1.28000,
,,,00.000000038500,   1.28000,
,,,00.000000038600,   1.28000,
,,,00.000000038700,   1.28000,
,,,00.000000038800,   1.20000,
,,,00.000000038900,   1.20000,
,,,00.000000039000,   1.20000,
,,,00.000000039100,   1.20000,
,,,00.000000039200,   1.20000,
,,,00.000000039300,   1.12000,
,,,00.000000039400,   1.12000,
,,,00.000000039500,   1.12000,
,,,00.000000039600,   1.12000,
,,,00.000000039700,   1.12000,
,,,00.000000039800,   1.12000,
,,,00.000000039900,   1.12000,
,,,00.000000040000,   1.12000,
,,,00.000000040100,   1.12000,
,,,00.000000040200,   1.12000,
,,,00.000000040300,   1.12000,
,,,00.000000040400,   1.12000,
,,,00.000000040500,   1.12000,
,,,00.000000040600,   1.12000,
,,,00.000000040700,   1.12000,
,,,00.000000040800,   1.12000,
,,,00.000000040900,   1.12000,
,,,00.000000041000,   1.20000,
,,,00.000000041100,   1.20000,
,,,00.000000041200,   1.20000,
,,,00.000000041300,   1.20000,
,,,00.000000041400,   1.12000,
,,,00.000000041500,   1.12000,
,,,00.000000041600,   1.12000,
,,,00.000000041700,   1.12000,
,,,00.000000041800,   1.12000,
,,,00.000000041900,   1.04000,
,,,00.000000042000,   1.04000,
,,,00.000000042100,   1.04000,
,,,00.000000042200,   1.04000,
,,,00.000000042300,   0.96000,
,,,00.000000042400,   0.96000,
,,,00.000000042500,   0.96000,
,,,00.000000042600,   0.96000,
,,,00.000000042700,   0.96000,
,,,00.000000042800,   0.88000,
,,,00.000000042900,   0.88000,
,,,00.000000043000,   0.88000,
,,,00.000000043100,   0.88000,
,,,00.000000043200,   0.88000,
,,,00.000000043300,   0.80000,
,,,00.000000043400,   0.80000,
,,,00.000000043500,   0.80000,
,,,00.000000043600,   0.80000,
,,,00.000000043700,   0.80000,
,,,00.000000043800,   0.80000,
,,,00.000000043900,   0.80000,
,,,00.000000044000,   0.80000,
,,,00.000000044100,   0.80000,
,,,00.000000044200,   0.80000,
,,,00.000000044300,   0.80000,
,,,00.000000044400,   0.80000,
,,,00.000000044500,   0.80000,
,,,00.000000044600,   0.80000,
,,,00.000000044700,   0.80000,
,,,00.000000044800,   0.80000,
,,,00.000000044900,   0.80000,
,,,00.000000045000,   0.88000,
,,,00.000000045100,   0.88000,
,,,00.000000045200,   0.88000,
,,,00.000000045300,   0.88000,
,,,00.000000045400,   0.80000,
,,,00.000000045500,   0.80000,
,,,00.000000045600,   0.80000,
,,,00.000000045700,   0.80000,
,,,00.000000045800,   0.80000,
,,,00.000000045900,   0.72000,
,,,00.000000046000,   0.72000,
,,,00.000000046100,   0.72000,
,,,00.000000046200,   0.72000,
,,,00.000000046300,   0.64000,
,,,00.000000046400,   0.64000,
,,,00.000000046500,   0.64000,
,,,00.000000046600,   0.64000,
,,,00.000000046700,   0.56000,
,,,00.000000046800,   0.56000,
,,,00.000000046900,   0.56000,
,,,00.000000047000,   0.56000,
,,,00.000000047100,   0.56000,
,,,00.000000047200,   0.56000,
,,,00.000000047300,   0.56000,
,,,00.000000047400,   0.56000,
,,,00.000000047500,   0.56000,
,,,00.000000047600,   0.56000,
,,,00.000000047700,   0.56000,
,,,00.000000047800,   0.56000,
,,,00.000000047900,   0.56000,
,,,00.000000048000,   0.56000,
,,,00.000000048100,   0.56000,
,,,00.000000048200,   0.56000,
,,,00.000000048300,   0.56000,
,,,00.000000048400,   0.48000,
,,,00.000000048500,   0.48000,
,,,00.000000048600,   0.48000,
,,,00.000000048700,   0.48000,
,,,00.000000048800,   0.48000,
,,,00.000000048900,   0.48000,
,,,00.000000049000,   0.48000,
,,,00.000000049100,   0.48000,
,,,00.000000049200,   0.48000,
,,,00.000000049300,   0.48000,
,,,00.000000049400,   0.48000,
,,,00.000000049500,   0.48000,
,,,00.000000049600,   0.48000,
,,,00.000000049700,   0.48000,
,,,00.000000049800,   0.48000,
,,,00.000000049900,   0.48000,
,,,00.000000050000,   0.48000,
,,,00.000000050100,   0.48000,
,,,00.000000050200,   0.48000,
,,,00.000000050300,   0.48000,
,,,00.000000050400,   0.48000,
,,,00.000000050500,   0.48000,
,,,00.000000050600,   0.48000,
,,,00.000000050700,   0.48000,
,,,00.000000050800,   0.48000,
,,,00.000000050900,   0.48000,
,,,00.000000051000,   0.48000,
,,,00.000000051100,   0.48000,
,,,00.000000051200,   0.48000,
,,,00.000000051300,   0.48000,
,,,00.000000051400,   0.40000,
,,,00.000000051500,   0.40000,
,,,00.000000051600,   0.40000,
,,,00.000000051700,   0.40000,
,,,00.000000051800,   0.40000,
,,,00.000000051900,   0.40000,
,,,00.000000052000,   0.40000,
,,,00.000000052100,   0.40000,
,,,00.000000052200,   0.40000,
,,,00.000000052300,   0.40000,
,,,00.000000052400,   0.32000,
,,,00.000000052500,   0.32000,
,,,00.000000052600,   0.32000,
,,,00.000000052700,   0.32000,
,,,00.000000052800,   0.32000,
,,,00.000000052900,   0.32000,
,,,00.000000053000,   0.32000,
,,,00.000000053100,   0.32000,
,,,00.000000053200,   0.32000,
,,,00.000000053300,   0.32000,
,,,00.000000053400,   0.32000,
,,,00.000000053500,   0.32000,
,,,00.000000053600,   0.32000,
,,,00.000000053700,   0.32000,
,,,00.000000053800,   0.32000,
,,,00.000000053900,   0.32000,
,,,00.000000054000,   0.32000,
,,,00.000000054100,   0.32000,
,,,00.000000054200,   0.32000,
,,,00.000000054300,   0.32000,
,,,00.000000054400,   0.32000,
,,,00.000000054500,   0.32000,
,,,00.000000054600,   0.32000,
,,,00.000000054700,   0.32000,
,,,00.000000054800,   0.32000,
,,,00.000000054900,   0.32000,
,,,00.000000055000,   0.32000,
,,,00.000000055100,   0.32000,
,,,00.000000055200,   0.32000,
,,,00.000000055300,   0.32000,
,,,00.000000055400,   0.32000,
,,,00.000000055500,   0.32000,
,,,00.000000055600,   0.32000,
,,,00.000000055700,   0.32000,
,,,00.000000055800,   0.32000,
,,,00.000000055900,   0.32000,
,,,00.000000056000,   0.32000,
,,,00.000000056100,   0.32000,
,,,00.000000056200,   0.32000,
,,,00.000000056300,   0.32000,
,,,00.000000056400,   0.32000,
,,,00.000000056500,   0.32000,
,,,00.000000056600,   0.32000,
,,,00.000000056700,   0.32000,
,,,00.000000056800,   0.32000,
,,,00.000000056900,   0.32000,
,,,00.000000057000,   0.32000,
,,,00.000000057100,   0.32000,
,,,00.000000057200,   0.32000,
,,,00.000000057300,   0.32000,
,,,00.000000057400,   0.24000,
,,,00.000000057500,   0.24000,
,,,00.000000057600,   0.24000,
,,,00.000000057700,   0.24000,
,,,00.000000057800,   0.24000,
,,,00.000000057900,   0.24000,
,,,00.000000058000,   0.24000,
,,,00.000000058100,   0.24000,
,,,00.000000058200,   0.24000,
,,,00.000000058300,   0.24000,
,,,00.000000058400,   0.24000,
,,,00.000000058500,   0.24000,
,,,00.000000058600,   0.24000,
,,,00.000000058700,   0.24000,
,,,00.000000058800,   0.24000,
,,,00.000000058900,   0.24000,
,,,00.000000059000,   0.24000,
,,,00.000000059100,   0.24000,
,,,00.000000059200,   0.24000,
,,,00.000000059300,   0.24000,
,,,00.000000059400,   0.16000,
,,,00.000000059500,   0.16000,
,,,00.000000059600,   0.16000,
,,,00.000000059700,   0.16000,
,,,00.000000059800,   0.16000,
,,,00.000000059900,   0.16000,
,,,00.000000060000,   0.16000,
,,,00.000000060100,   0.16000,
,,,00.000000060200,   0.16000,
,,,00.000000060300,   0.16000,
,,,00.000000060400,   0.16000,
,,,00.000000060500,   0.16000,
,,,00.000000060600,   0.16000,
,,,00.000000060700,   0.16000,
,,,00.000000060800,   0.16000,
,,,00.000000060900,   0.16000,
,,,00.000000061000,   0.16000,
,,,00.000000061100,   0.24000,
,,,00.000000061200,   0.24000,
,,,00.000000061300,   0.24000,
,,,00.000000061400,   0.24000,
,,,00.000000061500,   0.16000,
,,,00.000000061600,   0.16000,
,,,00.000000061700,   0.16000,
,,,00.000000061800,   0.16000,
,,,00.000000061900,   0.16000,
,,,00.000000062000,   0.16000,
,,,00.000000062100,   0.16000,
,,,00.000000062200,   0.16000,
,,,00.000000062300,   0.16000,
,,,00.000000062400,   0.08000,
,,,00.000000062500,   0.08000,
,,,00.000000062600,   0.08000,
,,,00.000000062700,   0.08000,
,,,00.000000062800,   0.08000,
,,,00.000000062900,   0.08000,
,,,00.000000063000,   0.08000,
,,,00.000000063100,   0.08000,
,,,00.000000063200,   0.08000,
,,,00.000000063300,   0.08000,
,,,00.000000063400,   0.08000,
,,,00.000000063500,   0.08000,
,,,00.000000063600,   0.08000,
,,,00.000000063700,   0.08000,
,,,00.000000063800,   0.08000,
,,,00.000000063900,   0.08000,
,,,00.000000064000,   0.08000,
,,,00.000000064100,   0.08000,
,,,00.000000064200,   0.08000,
,,,00.000000064300,   0.08000,
,,,00.000000064400,   0.00000,
,,,00.000000064500,   0.00000,
,,,00.000000064600,   0.00000,
,,,00.000000064700,   0.00000,
,,,00.000000064800,   0.00000,
,,,00.000000064900,   0.00000,
,,,00.000000065000,   0.00000,
,,,00.000000065100,   0.00000,
,,,00.000000065200,   0.00000,
,,,00.000000065300,   0.00000,
,,,00.000000065400,   0.00000,
,,,00.000000065500,   0.00000,
,,,00.000000065600,   0.00000,
,,,00.000000065700,   0.00000,
,,,00.000000065800,   0.00000,
,,,00.000000065900,   0.00000,
,,,00.000000066000,   0.00000,
,,,00.000000066100,   0.08000,
,,,00.000000066200,   0.08000,
,,,00.000000066300,   0.08000,
,,,00.000000066400,   0.08000,
,,,00.000000066500,   0.08000,
,,,00.000000066600,   0.08000,
,,,00.000000066700,   0.08000,
,,,00.000000066800,   0.08000,
,,,00.000000066900,   0.08000,
,,,00.000000067000,   0.08000,
,,,00.000000067100,   0.08000,
,,,00.000000067200,   0.08000,
,,,00.000000067300,   0.08000,
,,,00.000000067400,   0.00000,
,,,00.000000067500,   0.00000,
,,,00.000000067600,   0.00000,
,,,00.000000067700,   0.00000,
,,,00.000000067800,   0.00000,
,,,00.000000067900,   0.00000,
,,,00.000000068000,   0.00000,
,,,00.000000068100,   0.00000,
,,,00.000000068200,   0.00000,
,,,00.000000068300,   0.00000,
,,,00.000000068400,   0.00000,
,,,00.000000068500,   0.00000,
,,,00.000000068600,   0.00000,
,,,00.000000068700,   0.00000,
,,,00.000000068800,   0.00000,
,,,00.000000068900,   0.00000,
,,,00.000000069000,   0.00000,
,,,00.000000069100,   0.08000,
,,,00.000000069200,   0.08000,
,,,00.000000069300,   0.08000,
,,,00.000000069400,   0.00000,
,,,00.000000069500,   0.00000,
,,,00.000000069600,   0.00000,
,,,00.000000069700,   0.00000,
,,,00.000000069800,   0.00000,
,,,00.000000069900,   0.00000,
,,,00.000000070000,   0.00000,
,,,00.000000070100,   0.00000,
,,,00.000000070200,   0.00000,
,,,00.000000070300,   0.00000,
,,,00.000000070400,   0.00000,
,,,00.000000070500,   0.00000,
,,,00.000000070600,  -0.08000,
,,,00.000000070700,  -0.08000,
,,,00.000000070800,  -0.08000,
,,,00.000000070900,   0.00000,
,,,00.000000071000,   0.00000,
,,,00.000000071100,   0.00000,
,,,00.000000071200,   0.00000,
,,,00.000000071300,   0.00000,
,,,00.000000071400,   0.00000,
,,,00.000000071500,   0.00000,
,,,00.000000071600,   0.00000,
,,,00.000000071700,   0.00000,
,,,00.000000071800,   0.00000,
,,,00.000000071900,   0.00000,
,,,00.000000072000,   0.00000,
,,,00.000000072100,   0.08000,
,,,00.000000072200,   0.08000,
,,,00.000000072300,   0.08000,
,,,00.000000072400,   0.00000,
,,,00.000000072500,   0.00000,
,,,00.000000072600,   0.00000,
,,,00.000000072700,   0.00000,
,,,00.000000072800,   0.00000,
,,,00.000000072900,   0.00000,
,,,00.000000073000,   0.00000,
,,,00.000000073100,   0.00000,
,,,00.000000073200,   0.00000,
,,,00.000000073300,   0.00000,
,,,00.000000073400,   0.00000,
,,,00.000000073500,   0.00000,
,,,00.000000073600,   0.00000,
,,,00.000000073700,   0.00000,
,,,00.000000073800,   0.00000,
,,,00.000000073900,   0.00000,
,,,00.000000074000,   0.00000,
,,,00.000000074100,   0.00000,
,,,00.000000074200,   0.00000,
,,,00.000000074300,   0.00000,
,,,00.000000074400,   0.00000,
,,,00.000000074500,   0.00000,
,,,00.000000074600,   0.00000,
,,,00.000000074700,   0.00000,
,,,00.000000074800,   0.00000,
,,,00.000000074900,   0.00000,
,,,00.000000075000,   0.00000,
,,,00.000000075100,   0.00000,
,,,00.000000075200,   0.00000,
,,,00.000000075300,   0.00000,
,,,00.000000075400,   0.00000,
,,,00.000000075500,   0.00000,
,,,00.000000075600,   0.00000,
,,,00.000000075700,   0.00000,
,,,00.000000075800,   0.00000,
,,,00.000000075900,   0.00000,
,,,00.000000076000,   0.00000,
,,,00.000000076100,   0.00000,
,,,00.000000076200,   0.00000,
,,,00.000000076300,   0.00000,
,,,00.000000076400,   0.00000,
,,,00.000000076500,   0.00000,
,,,00.000000076600,   0.00000,
,,,00.000000076700,   0.00000,
,,,00.000000076800,   0.00000,
,,,00.000000076900,   0.00000,
,,,00.000000077000,   0.00000,
,,,00.000000077100,   0.00000,
,,,00.000000077200,   0.00000,
,,,00.000000077300,   0.00000,
,,,00.000000077400,   0.00000,
,,,00.000000077500,   0.00000,
,,,00.000000077600,   0.00000,
,,,00.000000077700,   0.00000,
,,,00.000000077800,   0.00000,
,,,00.000000077900,   0.00000,
,,,00.000000078000,   0.00000,
,,,00.000000078100,   0.08000,
,,,00.000000078200,   0.08000,
,,,00.000000078300,   0.08000,
,,,00.000000078400,   0.08000,
,,,00.000000078500,   0.00000,
,,,00.000000078600,   0.00000,
,,,00.000000078700,   0.00000,
,,,00.000000078800,   0.00000,
,,,00.000000078900,   0.00000,
,,,00.000000079000,   0.00000,
,,,00.000000079100,   0.00000,
,,,00.000000079200,   0.00000,
,,,00.000000079300,  -0.08000,
,,,00.000000079400,  -0.08000,
,,,00.000000079500,  -0.08000,
,,,00.000000079600,  -0.08000,
,,,00.000000079700,  -0.08000,
,,,00.000000079800,  -0.08000,
,,,00.000000079900,  -0.08000,
,,,00.000000080000,  -0.08000,
,,,00.000000080100,  -0.08000,
,,,00.000000080200,  -0.08000,
,,,00.000000080300,  -0.08000,
,,,00.000000080400,  -0.08000,
,,,00.000000080500,  -0.08000,
,,,00.000000080600,  -0.08000,
,,,00.000000080700,  -0.08000,
,,,00.000000080800,  -0.08000,
,,,00.000000080900,  -0.08000,
,,,00.000000081000,  -0.08000,
,,,00.000000081100,   0.00000,
,,,00.000000081200,   0.00000,
,,,00.000000081300,   0.00000,
,,,00.000000081400,   0.00000,
,,,00.000000081500,   0.00000,
,,,00.000000081600,   0.00000,
,,,00.000000081700,   0.00000,
,,,00.000000081800,   0.00000,
,,,00.000000081900,   0.00000,
,,,00.000000082000,   0.00000,
,,,00.000000082100,   0.00000,
,,,00.000000082200,   0.00000,
,,,00.000000082300,   0.00000,
,,,00.000000082400,  -0.08000,
,,,00.000000082500,  -0.08000,
,,,00.000000082600,  -0.08000,
,,,00.000000082700,  -0.08000,
,,,00.000000082800,  -0.08000,
,,,00.000000082900,  -0.08000,
,,,00.000000083000,  -0.08000,
,,,00.000000083100,  -0.08000,
,,,00.000000083200,  -0.08000,
,,,00.000000083300,  -0.08000,
,,,00.000000083400,  -0.08000,
,,,00.000000083500,  -0.08000,
,,,00.000000083600,  -0.16000,
,,,00.000000083700,  -0.16000,
,,,00.000000083800,  -0.16000,
,,,00.000000083900,  -0.08000,
,,,00.000000084000,  -0.08000,
,,,00.000000084100,  -0.08000,
,,,00.000000084200,  -0.08000,
,,,00.000000084300,  -0.08000,
,,,00.000000084400,  -0.08000,
,,,00.000000084500,  -0.08000,
,,,00.000000084600,  -0.08000,
,,,00.000000084700,  -0.08000,
,,,00.000000084800,  -0.08000,
,,,00.000000084900,  -0.08000,
,,,00.000000085000,  -0.08000,
,,,00.000000085100,   0.00000,
,,,00.000000085200,   0.00000,
,,,00.000000085300,   0.00000,
,,,00.000000085400,   0.00000,
,,,00.000000085500,   0.00000,
,,,00.000000085600,   0.00000,
,,,00.000000085700,   0.00000,
,,,00.000000085800,   0.00000,
,,,00.000000085900,   0.00000,
,,,00.000000086000,   0.00000,
,,,00.000000086100,   0.00000,
,,,00.000000086200,   0.00000,
,,,00.000000086300,   0.00000,
,,,00.000000086400,  -0.08000,
,,,00.000000086500,  -0.08000,
,,,00.000000086600,  -0.08000,
,,,00.000000086700,  -0.08000,
,,,00.000000086800,  -0.08000,
,,,00.000000086900,  -0.08000,
,,,00.000000087000,  -0.08000,
,,,00.000000087100,  -0.08000,
,,,00.000000087200,  -0.08000,
,,,00.000000087300,  -0.08000,
,,,00.000000087400,  -0.08000,
,,,00.000000087500,  -0.08000,
,,,00.000000087600,  -0.08000,
,,,00.000000087700,  -0.08000,
,,,00.000000087800,  -0.08000,
,,,00.000000087900,  -0.08000,
,,,00.000000088000,  -0.08000,
,,,00.000000088100,  -0.08000,
,,,00.000000088200,  -0.08000,
,,,00.000000088300,  -0.08000,
,,,00.000000088400,  -0.08000,
,,,00.000000088500,  -0.08000,
,,,00.000000088600,  -0.08000,
,,,00.000000088700,  -0.08000,
,,,00.000000088800,  -0.08000,
,,,00.000000088900,  -0.08000,
,,,00.000000089000,  -0.08000,
,,,00.000000089100,  -0.08000,
,,,00.000000089200,  -0.08000,
,,,00.000000089300,  -0.08000,
,,,00.000000089400,  -0.08000,
,,,00.000000089500,  -0.08000,
,,,00.000000089600,  -0.08000,
,,,00.000000089700,  -0.08000,
,,,00.000000089800,  -0.08000,
,,,00.000000089900,  -0.08000,
,,,00.000000090000,  -0.08000,
,,,00.000000090100,  -0.08000,
,,,00.000000090200,  -0.08000,
,,,00.000000090300,  -0.08000,
,,,00.000000090400,  -0.08000,
,,,00.000000090500,  -0.08000,
,,,00.000000090600,  -0.08000,
,,,00.000000090700,  -0.08000,
,,,00.000000090800,  -0.08000,
,,,00.000000090900,  -0.08000,
,,,00.000000091000,  -0.08000,
,,,00.000000091100,  -0.08000,
,,,00.000000091200,  -0.08000,
,,,00.000000091300,  -0.08000,
,,,00.000000091400,  -0.08000,
,,,00.000000091500,  -0.08000,
,,,00.000000091600,  -0.08000,
,,,00.000000091700,  -0.08000,
,,,00.000000091800,  -0.08000,
,,,00.000000091900,  -0.08000,
,,,00.000000092000,  -0.08000,
,,,00.000000092100,   0.00000,
,,,00.000000092200,   0.00000,
,,,00.000000092300,   0.00000,
,,,00.000000092400,   0.00000,
,,,00.000000092500,   0.00000,
,,,00.000000092600,   0.00000,
,,,00.000000092700,   0.00000,
,,,00.000000092800,   0.00000,
,,,00.000000092900,   0.00000,
,,,00.000000093000,   0.00000,
,,,00.000000093100,   0.00000,
,,,00.000000093200,   0.00000,
,,,00.000000093300,   0.00000,
,,,00.000000093400,  -0.08000,
,,,00.000000093500,  -0.08000,
,,,00.000000093600,  -0.08000,
,,,00.000000093700,  -0.08000,
,,,00.000000093800,  -0.08000,
,,,00.000000093900,  -0.08000,
,,,00.000000094000,  -0.08000,
,,,00.000000094100,  -0.08000,
,,,00.000000094200,  -0.08000,
,,,00.000000094300,  -0.08000,
,,,00.000000094400,  -0.08000,
,,,00.000000094500,  -0.08000,
,,,00.000000094600,  -0.16000,
,,,00.000000094700,  -0.16000,
,,,00.000000094800,  -0.16000,
,,,00.000000094900,  -0.08000,
,,,00.000000095000,  -0.08000,
,,,00.000000095100,  -0.08000,
,,,00.000000095200,  -0.08000,
,,,00.000000095300,  -0.08000,
,,,00.000000095400,  -0.08000,
,,,00.000000095500,  -0.08000,
,,,00.000000095600,  -0.08000,
,,,00.000000095700,  -0.08000,
,,,00.000000095800,  -0.08000,
,,,00.000000095900,  -0.08000,
,,,00.000000096000,  -0.08000,
,,,00.000000096100,   0.00000,
,,,00.000000096200,   0.00000,
,,,00.000000096300,   0.00000,
,,,00.000000096400,   0.00000,
,,,00.000000096500,   0.00000,
,,,00.000000096600,   0.00000,
,,,00.000000096700,   0.00000,
,,,00.000000096800,   0.00000,
,,,00.000000096900,   0.00000,
,,,00.000000097000,   0.00000,
,,,00.000000097100,   0.00000,
,,,00.000000097200,   0.00000,
,,,00.000000097300,   0.00000,
,,,00.000000097400,  -0.08000,
,,,00.000000097500,  -0.08000,
,,,00.000000097600,  -0.08000,
,,,00.000000097700,  -0.08000,
,,,00.000000097800,  -0.08000,
,,,00.000000097900,  -0.08000,
,,,00.000000098000,  -0.08000,
,,,00.000000098100,  -0.08000,
,,,00.000000098200,  -0.08000,
,,,00.000000098300,  -0.08000,
,,,00.000000098400,  -0.08000,
,,,00.000000098500,  -0.08000,
,,,00.000000098600,  -0.16000,
,,,00.000000098700,  -0.16000,
,,,00.000000098800,  -0.16000,
,,,00.000000098900,  -0.08000,
,,,00.000000099000,  -0.08000,
,,,00.000000099100,  -0.08000,
,,,00.000000099200,  -0.08000,
,,,00.000000099300,  -0.08000,
,,,00.000000099400,  -0.08000,
,,,00.000000099500,  -0.08000,
,,,00.000000099600,  -0.08000,
,,,00.000000099700,  -0.08000,
,,,00.000000099800,  -0.08000,
,,,00.000000099900,  -0.08000,
,,,00.000000100000,  -0.08000,
,,,00.000000100100,   0.00000,
,,,00.000000100200,   0.00000,
,,,00.000000100300,   0.00000,
,,,00.000000100400,  -0.08000,
,,,00.000000100500,  -0.08000,
,,,00.000000100600,  -0.08000,
,,,00.000000100700,  -0.08000,
,,,00.000000100800,  -0.08000,
,,,00.000000100900,  -0.08000,
,,,00.000000101000,  -0.08000,
,,,00.000000101100,  -0.08000,
,,,00.000000101200,  -0.08000,
,,,00.000000101300,  -0.08000,
,,,00.000000101400,  -0.08000,
,,,00.000000101500,  -0.08000,
,,,00.000000101600,  -0.08000,
,,,00.000000101700,  -0.08000,
,,,00.000000101800,  -0.08000,
,,,00.000000101900,  -0.08000,
,,,00.000000102000,  -0.08000,
,,,00.000000102100,   0.00000,
,,,00.000000102200,   0.00000,
,,,00.000000102300,   0.00000,
,,,00.000000102400,  -0.08000,
,,,00.000000102500,  -0.08000,
,,,00.000000102600,  -0.08000,
,,,00.000000102700,  -0.08000,
,,,00.000000102800,  -0.08000,
,,,00.000000102900,  -0.08000,
,,,00.000000103000,  -0.08000,
,,,00.000000103100,  -0.08000,
,,,00.000000103200,  -0.08000,
,,,00.000000103300,  -0.08000,
,,,00.000000103400,  -0.08000,
,,,00.000000103500,  -0.08000,
,,,00.000000103600,  -0.08000,
,,,00.000000103700,  -0.08000,
,,,00.000000103800,  -0.08000,
,,,00.000000103900,  -0.08000,
,,,00.000000104000,  -0.08000,
,,,00.000000104100,  -0.08000,
,,,00.000000104200,  -0.08000,
,,,00.000000104300,  -0.08000,
,,,00.000000104400,  -0.08000,
,,,00.000000104500,  -0.08000,
,,,00.000000104600,  -0.08000,
,,,00.000000104700,  -0.08000,
,,,00.000000104800,  -0.08000,
,,,00.000000104900,  -0.08000,
,,,00.000000105000,  -0.08000,
,,,00.000000105100,  -0.08000,
,,,00.000000105200,  -0.08000,
,,,00.000000105300,  -0.08000,
,,,00.000000105400,  -0.08000,
,,,00.000000105500,  -0.08000,
,,,00.000000105600,  -0.08000,
,,,00.000000105700,  -0.08000,
,,,00.000000105800,  -0.08000,
,,,00.000000105900,  -0.08000,
,,,00.000000106000,  -0.08000,
,,,00.000000106100,  -0.08000,
,,,00.000000106200,  -0.08000,
,,,00.000000106300,  -0.08000,
,,,00.000000106400,  -0.08000,
,,,00.000000106500,  -0.08000,
,,,00.000000106600,  -0.08000,
,,,00.000000106700,  -0.08000,
,,,00.000000106800,  -0.08000,
,,,00.000000106900,  -0.08000,
,,,00.000000107000,  -0.08000,
,,,00.000000107100,  -0.08000,
,,,00.000000107200,  -0.08000,
,,,00.000000107300,  -0.08000,
,,,00.000000107400,  -0.08000,
,,,00.000000107500,  -0.08000,
,,,00.000000107600,  -0.08000,
,,,00.000000107700,  -0.08000,
,,,00.000000107800,  -0.08000,
,,,00.000000107900,  -0.08000,
,,,00.000000108000,  -0.08000,
,,,00.000000108100,  -0.08000,
,,,00.000000108200,  -0.08000,
,,,00.000000108300,  -0.08000,
,,,00.000000108400,  -0.08000,
,,,00.000000108500,  -0.08000,
,,,00.000000108600,  -0.08000,
,,,00.000000108700,  -0.08000,
,,,00.000000108800,  -0.08000,
,,,00.000000108900,  -0.08000,
,,,00.000000109000,  -0.08000,
,,,00.000000109100,   0.00000,
,,,00.000000109200,   0.00000,
,,,00.000000109300,   0.00000,
,,,00.000000109400,   0.00000,
,,,00.000000109500,   0.00000,
,,,00.000000109600,   0.00000,
,,,00.000000109700,   0.00000,
,,,00.000000109800,   0.00000,
,,,00.000000109900,   0.00000,
,,,00.000000110000,   0.00000,
,,,00.000000110100,   0.00000,
,,,00.000000110200,   0.00000,
,,,00.000000110300,   0.00000,
,,,00.000000110400,  -0.08000,
,,,00.000000110500,  -0.08000,
,,,00.000000110600,  -0.08000,
,,,00.000000110700,  -0.08000,
,,,00.000000110800,  -0.08000,
,,,00.000000110900,  -0.08000,
,,,00.000000111000,  -0.08000,
,,,00.000000111100,  -0.08000,
,,,00.000000111200,  -0.08000,
,,,00.000000111300,  -0.08000,
,,,00.000000111400,  -0.08000,
,,,00.000000111500,  -0.08000,
,,,00.000000111600,  -0.08000,
,,,00.000000111700,  -0.08000,
,,,00.000000111800,  -0.08000,
,,,00.000000111900,  -0.08000,
,,,00.000000112000,  -0.08000,
,,,00.000000112100,   0.00000,
,,,00.000000112200,   0.00000,
,,,00.000000112300,   0.00000,
,,,00.000000112400,  -0.08000,
,,,00.000000112500,  -0.08000,
,,,00.000000112600,  -0.08000,
,,,00.000000112700,  -0.08000,
,,,00.000000112800,  -0.08000,
,,,00.000000112900,  -0.08000,
,,,00.000000113000,  -0.08000,
,,,00.000000113100,  -0.08000,
,,,00.000000113200,  -0.08000,
,,,00.000000113300,  -0.08000,
,,,00.000000113400,  -0.08000,
,,,00.000000113500,  -0.08000,
,,,00.000000113600,  -0.16000,
,,,00.000000113700,  -0.16000,
,,,00.000000113800,  -0.16000,
,,,00.000000113900,  -0.08000,
,,,00.000000114000,  -0.08000,
,,,00.000000114100,  -0.08000,
,,,00.000000114200,  -0.08000,
,,,00.000000114300,  -0.08000,
,,,00.000000114400,  -0.08000,
,,,00.000000114500,  -0.08000,
,,,00.000000114600,  -0.08000,
,,,00.000000114700,  -0.08000,
,,,00.000000114800,  -0.08000,
,,,00.000000114900,  -0.08000,
,,,00.000000115000,  -0.08000,
,,,00.000000115100,   0.00000,
,,,00.000000115200,   0.00000,
,,,00.000000115300,   0.00000,
,,,00.000000115400,   0.00000,
,,,00.000000115500,   0.00000,
,,,00.000000115600,   0.00000,
,,,00.000000115700,   0.00000,
,,,00.000000115800,   0.00000,
,,,00.000000115900,   0.00000,
,,,00.000000116000,   0.00000,
,,,00.000000116100,   0.00000,
,,,00.000000116200,   0.00000,
,,,00.000000116300,   0.00000,
,,,00.000000116400,  -0.08000,
,,,00.000000116500,  -0.08000,
,,,00.000000116600,  -0.08000,
,,,00.000000116700,  -0.08000,
,,,00.000000116800,  -0.08000,
,,,00.000000116900,  -0.08000,
,,,00.000000117000,  -0.08000,
,,,00.000000117100,  -0.08000,
,,,00.000000117200,  -0.08000,
,,,00.000000117300,  -0.08000,
,,,00.000000117400,  -0.08000,
,,,00.000000117500,  -0.08000,
,,,00.000000117600,  -0.08000,
,,,00.000000117700,  -0.08000,
,,,00.000000117800,  -0.08000,
,,,00.000000117900,  -0.08000,
,,,00.000000118000,  -0.08000,
,,,00.000000118100,   0.00000,
,,,00.000000118200,   0.00000,
,,,00.000000118300,   0.00000,
,,,00.000000118400,   0.00000,
,,,00.000000118500,   0.00000,
,,,00.000000118600,   0.00000,
,,,00.000000118700,   0.00000,
,,,00.000000118800,   0.00000,
,,,00.000000118900,   0.00000,
,,,00.000000119000,   0.00000,
,,,00.000000119100,   0.00000,
,,,00.000000119200,   0.00000,
,,,00.000000119300,   0.00000,
,,,00.000000119400,  -0.08000,
,,,00.000000119500,  -0.08000,
,,,00.000000119600,  -0.08000,
,,,00.000000119700,  -0.08000,
,,,00.000000119800,  -0.08000,
,,,00.000000119900,  -0.08000,
,,,00.000000120000,  -0.08000,
,,,00.000000120100,  -0.08000,
,,,00.000000120200,  -0.08000,
,,,00.000000120300,  -0.08000,
,,,00.000000120400,  -0.08000,
,,,00.000000120500,  -0.08000,
,,,00.000000120600,  -0.08000,
,,,00.000000120700,  -0.08000,
,,,00.000000120800,  -0.08000,
,,,00.000000120900,  -0.08000,
,,,00.000000121000,  -0.08000,
,,,00.000000121100,  -0.08000,
,,,00.000000121200,  -0.08000,
,,,00.000000121300,  -0.08000,
,,,00.000000121400,  -0.08000,
,,,00.000000121500,  -0.08000,
,,,00.000000121600,  -0.08000,
,,,00.000000121700,  -0.08000,
,,,00.000000121800,  -0.08000,
,,,00.000000121900,  -0.08000,
,,,00.000000122000,  -0.08000,
,,,00.000000122100,  -0.08000,
,,,00.000000122200,  -0.08000,
,,,00.000000122300,  -0.08000,
,,,00.000000122400,  -0.08000,
,,,00.000000122500,  -0.08000,
,,,00.000000122600,  -0.08000,
,,,00.000000122700,  -0.08000,
,,,00.000000122800,  -0.08000,
,,,00.000000122900,  -0.08000,
,,,00.000000123000,  -0.08000,
,,,00.000000123100,  -0.08000,
,,,00.000000123200,  -0.08000,
,,,00.000000123300,  -0.08000,
,,,00.000000123400,  -0.08000,
,,,00.000000123500,  -0.08000,
,,,00.000000123600,  -0.08000,
,,,00.000000123700,  -0.08000,
,,,00.000000123800,  -0.08000,
,,,00.000000123900,  -0.08000,
,,,00.000000124000,  -0.08000,
,,,00.000000124100,   0.00000,
,,,00.000000124200,   0.00000,
,,,00.000000124300,   0.00000,
,,,00.000000124400,  -0.08000,
,,,00.000000124500,  -0.08000,
,,,00.000000124600,  -0.08000,
,,,00.000000124700,  -0.08000,
,,,00.000000124800,  -0.08000,
,,,00.000000124900,  -0.08000,
,,,00.000000125000,  -0.08000,
,,,00.000000125100,  -0.08000,
,,,00.000000125200,  -0.08000,
,,,00.000000125300,  -0.08000,
,,,00.000000125400,  -0.08000,
,,,00.000000125500,  -0.08000,
,,,00.000000125600,  -0.16000,
,,,00.000000125700,  -0.16000,
,,,00.000000125800,  -0.16000,
,,,00.000000125900,  -0.08000,
