Change Component Footprint: Designator=C2 Old Footprint=RB7.6-15 New Footprint=CP-RAD-12.5mm-20.0mm-5.0mm
Change Component Footprint: Designator=C19 Old Footprint=RB7.6-15 New Footprint=CP-RAD-12.5mm-20.0mm-5.0mm
Change Component Footprint: Designator=C38 Old Footprint=RB7.6-15 New Footprint=CP-RAD-12.5mm-20.0mm-5.0mm
