/*
WARNING: Do NOT edit the input and output ports in this file in a text
editor if you plan to continue editing the block that represents it in
the Block Editor! File corruption is VERY likely to occur.
*/
/*
Copyright (C) 2017  Intel Corporation. All rights reserved.
Your use of Intel Corporation's design tools, logic functions 
and other software and tools, and its AMPP partner logic 
functions, and any output files from any of the foregoing 
(including device programming or simulation files), and any 
associated documentation or information are expressly subject 
to the terms and conditions of the Intel Program License 
Subscription Agreement, the Intel Quartus Prime License Agreement,
the Intel MegaCore Function License Agreement, or other 
applicable license agreement, including, without limitation, 
that your use is for the sole purpose of programming logic 
devices manufactured by Intel and sold by Intel or its 
authorized distributors.  Please refer to the applicable 
agreement for further details.
*/
(header "graphic" (version "1.4"))
(pin
	(input)
	(rect 24 328 192 344)
	(text "INPUT" (rect 125 0 153 10)(font "Arial" (font_size 6)))
	(text "CLK50" (rect 5 0 39 12)(font "Arial" ))
	(pt 168 8)
	(drawing
		(line (pt 84 12)(pt 109 12))
		(line (pt 84 4)(pt 109 4))
		(line (pt 113 8)(pt 168 8))
		(line (pt 84 12)(pt 84 4))
		(line (pt 109 4)(pt 113 8))
		(line (pt 109 12)(pt 113 8))
	)
	(text "VCC" (rect 128 7 148 17)(font "Arial" (font_size 6)))
)
(pin
	(input)
	(rect 424 280 592 296)
	(text "INPUT" (rect 125 0 153 10)(font "Arial" (font_size 6)))
	(text "x" (rect 5 0 11 12)(font "Arial" ))
	(pt 168 8)
	(drawing
		(line (pt 84 12)(pt 109 12))
		(line (pt 84 4)(pt 109 4))
		(line (pt 113 8)(pt 168 8))
		(line (pt 84 12)(pt 84 4))
		(line (pt 109 4)(pt 113 8))
		(line (pt 109 12)(pt 113 8))
	)
	(text "VCC" (rect 128 7 148 17)(font "Arial" (font_size 6)))
)
(pin
	(output)
	(rect 952 296 1128 312)
	(text "OUTPUT" (rect 1 0 39 10)(font "Arial" (font_size 6)))
	(text "pin_name1" (rect 90 0 143 12)(font "Arial" ))
	(pt 0 8)
	(drawing
		(line (pt 0 8)(pt 52 8))
		(line (pt 52 4)(pt 78 4))
		(line (pt 52 12)(pt 78 12))
		(line (pt 52 12)(pt 52 4))
		(line (pt 78 4)(pt 82 8))
		(line (pt 82 8)(pt 78 12))
		(line (pt 78 12)(pt 82 8))
	)
)
(pin
	(output)
	(rect 952 312 1128 328)
	(text "OUTPUT" (rect 1 0 39 10)(font "Arial" (font_size 6)))
	(text "pin_name2" (rect 90 0 143 17)(font "Intel Clear" ))
	(pt 0 8)
	(drawing
		(line (pt 0 8)(pt 52 8))
		(line (pt 52 4)(pt 78 4))
		(line (pt 52 12)(pt 78 12))
		(line (pt 52 12)(pt 52 4))
		(line (pt 78 4)(pt 82 8))
		(line (pt 82 8)(pt 78 12))
		(line (pt 78 12)(pt 82 8))
	)
)
(pin
	(output)
	(rect 952 328 1128 344)
	(text "OUTPUT" (rect 1 0 39 10)(font "Arial" (font_size 6)))
	(text "pin_name3" (rect 90 0 143 17)(font "Intel Clear" ))
	(pt 0 8)
	(drawing
		(line (pt 0 8)(pt 52 8))
		(line (pt 52 4)(pt 78 4))
		(line (pt 52 12)(pt 78 12))
		(line (pt 52 12)(pt 52 4))
		(line (pt 78 4)(pt 82 8))
		(line (pt 82 8)(pt 78 12))
		(line (pt 78 12)(pt 82 8))
	)
)
(symbol
	(rect 616 488 752 568)
	(text "main" (rect 5 0 28 12)(font "Arial" ))
	(text "inst" (rect 8 64 25 76)(font "Arial" ))
	(port
		(pt 0 32)
		(input)
		(text "rst" (rect 0 0 12 12)(font "Arial" ))
		(text "rst" (rect 21 27 33 39)(font "Arial" ))
		(line (pt 0 32)(pt 16 32))
	)
	(port
		(pt 0 48)
		(input)
		(text "clk" (rect 0 0 14 12)(font "Arial" ))
		(text "clk" (rect 21 43 35 55)(font "Arial" ))
		(line (pt 0 48)(pt 16 48))
	)
	(port
		(pt 136 32)
		(output)
		(text "y[2..0]" (rect 0 0 33 12)(font "Arial" ))
		(text "y[2..0]" (rect 88 27 121 39)(font "Arial" ))
		(line (pt 136 32)(pt 120 32)(line_width 3))
	)
	(drawing
		(rectangle (rect 16 16 120 64))
	)
)
(symbol
	(rect 216 576 352 776)
	(text "LPM_COUNTER" (rect 20 0 133 16)(font "Arial" (font_size 10)))
	(text "inst2" (rect 3 189 30 203)(font "Arial" (font_size 8)))
	(port
		(pt 72 200)
		(input)
		(text "aclr" (rect 64 167 78 188)(font "Arial" (font_size 8))(vertical))
		(text "aclr" (rect 64 152 78 173)(font "Arial" (font_size 8))(vertical))
		(line (pt 72 200)(pt 72 184))
		(unused)
	)
	(port
		(pt 88 200)
		(input)
		(text "aload" (rect 80 158 94 188)(font "Arial" (font_size 8))(vertical))
		(text "aload" (rect 80 144 94 174)(font "Arial" (font_size 8))(vertical))
		(line (pt 88 200)(pt 88 184))
		(unused)
	)
	(port
		(pt 104 200)
		(input)
		(text "aset" (rect 48 164 62 188)(font "Arial" (font_size 8))(vertical))
		(text "aset" (rect 96 152 110 176)(font "Arial" (font_size 8))(vertical))
		(line (pt 104 200)(pt 104 184))
		(unused)
	)
	(port
		(pt 0 176)
		(input)
		(text "cin" (rect 24 168 40 182)(font "Arial" (font_size 8)))
		(text "cin" (rect 20 168 36 182)(font "Arial" (font_size 8)))
		(line (pt 0 176)(pt 16 176))
		(unused)
	)
	(port
		(pt 0 144)
		(input)
		(text "clk_en" (rect 20 121 56 135)(font "Arial" (font_size 8)))
		(text "clk_en" (rect 20 137 56 151)(font "Arial" (font_size 8)))
		(line (pt 0 144)(pt 16 144))
		(unused)
	)
	(port
		(pt 0 128)
		(input)
		(text "clock" (rect 27 106 56 120)(font "Arial" (font_size 8))(invisible))
		(text "clock" (rect 27 122 56 136)(font "Arial" (font_size 8))(invisible))
		(line (pt 0 128)(pt 16 128))
	)
	(port
		(pt 0 160)
		(input)
		(text "cnt_en" (rect 20 137 58 151)(font "Arial" (font_size 8)))
		(text "cnt_en" (rect 20 153 58 167)(font "Arial" (font_size 8)))
		(line (pt 0 160)(pt 16 160))
		(unused)
	)
	(port
		(pt 0 80)
		(input)
		(text "data[LPM_WIDTH-1..0]" (rect 20 89 146 103)(font "Arial" (font_size 8)))
		(text "data[]" (rect 20 73 51 87)(font "Arial" (font_size 8)))
		(line (pt 0 80)(pt 16 80)(line_width 3))
		(unused)
	)
	(port
		(pt 0 32)
		(input)
		(text "sclr" (rect 20 25 41 39)(font "Arial" (font_size 8)))
		(text "sclr" (rect 20 25 41 39)(font "Arial" (font_size 8)))
		(line (pt 0 32)(pt 16 32))
		(unused)
	)
	(port
		(pt 0 48)
		(input)
		(text "sload" (rect 20 41 50 55)(font "Arial" (font_size 8)))
		(text "sload" (rect 20 41 50 55)(font "Arial" (font_size 8)))
		(line (pt 0 48)(pt 16 48))
		(unused)
	)
	(port
		(pt 0 64)
		(input)
		(text "sset" (rect 20 57 44 71)(font "Arial" (font_size 8)))
		(text "sset" (rect 20 57 44 71)(font "Arial" (font_size 8)))
		(line (pt 0 64)(pt 16 64))
		(unused)
	)
	(port
		(pt 0 112)
		(input)
		(text "updown" (rect 20 73 67 87)(font "Arial" (font_size 8)))
		(text "updown" (rect 20 105 67 119)(font "Arial" (font_size 8)))
		(line (pt 0 112)(pt 16 112))
		(unused)
	)
	(port
		(pt 136 112)
		(output)
		(text "cout" (rect 88 120 112 134)(font "Arial" (font_size 8)))
		(text "cout" (rect 96 104 120 118)(font "Arial" (font_size 8)))
		(line (pt 136 112)(pt 120 112))
	)
	(port
		(pt 136 96)
		(output)
		(text "q[LPM_WIDTH-1..0]" (rect 105 89 213 103)(font "Arial" (font_size 8)))
		(text "q[]" (rect 105 89 119 103)(font "Arial" (font_size 8)))
		(line (pt 120 96)(pt 136 96)(line_width 3))
		(unused)
	)
	(parameter
		"LPM_SVALUE"
		""
		"Unsigned value associated with the sset port"
	)
	(parameter
		"LPM_AVALUE"
		""
		"Unsigned value associated with the aset port"
	)
	(parameter
		"LPM_MODULUS"
		"50000000"
		"Optional counter wrap value"
	)
	(parameter
		"LPM_DIRECTION"
		""
		"Selects between up/down, up, or down (\"DEFAULT\" \"UP\" \"DOWN\")"
	)
	(parameter
		"LPM_WIDTH"
		"26 "
		"Width of I/O, any integer > 0"
	)
	(parameter
		"LPM_PORT_UPDOWN"
		""
		"Condition of the up/down port (\"PORT_CONNECTIVITY\" \"PORT_USED\" \"PORT_UNUSED\")"
	)
	(drawing
		(line (pt 16 184)(pt 120 184))
		(line (pt 16 16)(pt 120 16))
		(line (pt 16 184)(pt 16 16))
		(line (pt 120 184)(pt 120 16))
		(line (pt 16 136)(pt 24 128))
		(line (pt 24 128)(pt 16 120))
	)
	(annotation_block (parameter)(rect 184 424 391 557))
)
(connector
	(text "saida[0]" (rect 874 288 911 305)(font "Intel Clear" ))
	(pt 864 304)
	(pt 952 304)
)
(connector
	(text "saida[1]" (rect 874 304 911 321)(font "Intel Clear" ))
	(pt 864 320)
	(pt 952 320)
)
(connector
	(text "saida[2]" (rect 874 320 911 337)(font "Intel Clear" ))
	(pt 864 336)
	(pt 952 336)
)
(connector
	(pt 592 288)
	(pt 600 288)
)
(connector
	(pt 192 336)
	(pt 200 336)
)
(connector
	(pt 864 304)
	(pt 864 320)
	(bus)
)
(connector
	(pt 600 288)
	(pt 600 520)
)
(connector
	(pt 600 520)
	(pt 616 520)
)
(connector
	(pt 864 320)
	(pt 864 336)
	(bus)
)
(connector
	(pt 864 336)
	(pt 864 520)
	(bus)
)
(connector
	(pt 616 536)
	(pt 360 536)
)
(connector
	(pt 360 536)
	(pt 360 688)
)
(connector
	(pt 360 688)
	(pt 352 688)
)
(connector
	(pt 200 336)
	(pt 200 704)
)
(connector
	(pt 200 704)
	(pt 216 704)
)
(connector
	(text "saida[2..0]" (rect 762 504 810 521)(font "Intel Clear" ))
	(pt 864 520)
	(pt 752 520)
	(bus)
)
(junction (pt 864 320))
(junction (pt 864 336))
