﻿Field=#~Integer~#~50|Field=Comment~String~Comment~100|Field=Description~String~Description~100|Field=Designator~String~Designator~100|Field=Footprint~String~Footprint~100|Field=LibRef~String~LibRef~100|Field=Quantity~Integer~Quantity~100|ReportField=Currency~<none>|ReportField=ProductionQuantity~1|ReportField=ProjectFileName~PCB_Project.PrjPcb|ReportField=ProjectFullPath~C:\Users\leofl\Desktop\Reverberador\PCB_Project.PrjPcb|ReportField=Title~Bill of Materials For Project [PCB_Project.PrjPcb] (No PCB Document Selected)|ReportField=TotalQuantity~123|ReportField=ReportTime~16:12:05|ReportField=ReportDate~23/06/2019|ReportField=ReportDateTime~23/06/2019 16:12:05|ReportField=OutputName~Bill of Materials|ReportField=OutputType~BOM_PartType|ReportField=GeneratorName~BOM|ReportField=GeneratorDescription~Bill of Materials|ReportField=VariantName~None|ReportField=Address1~|ReportField=Address2~|ReportField=Address3~|ReportField=Address4~|ReportField=Application_BuildNumber~|ReportField=ApprovedBy~|ReportField=Author~|ReportField=CheckedBy~|ReportField=CompanyName~|ReportField=CurrentDate~23/06/2019|ReportField=CurrentTime~16:11:55|ReportField=Date~|ReportField=DocumentFullPathAndName~C:\Users\leofl\Desktop\Reverberador\Esquemático.SchDoc|ReportField=DocumentName~Esquemático.SchDoc|ReportField=DocumentNumber~|ReportField=DrawnBy~|ReportField=Engineer~|ReportField=ImagePath~|ReportField=ModifiedDate~23/06/2019|ReportField=Organization~|ReportField=ProjectName~PCB_Project.PrjPcb|ReportField=Revision~|ReportField=Rule~|ReportField=SheetNumber~|ReportField=SheetTotal~|ReportField=Time~|ReportField=Title~|ReportField=DataSourceFileName~PCB_Project.PrjPcb|ReportField=DataSourceFullPath~C:\Users\leofl\Desktop\Reverberador\PCB_Project.PrjPcb|ReportField=PCBConfigurationName~Sources|ReportField=Item~|ReportField=ItemRevision~|ReportField=ItemAndRevision~|ReportField=ItemRevisionBase~|ReportField=ItemRevisionLevel1~|ReportField=ItemRevisionLevel2~|ReportField=ItemRevisionLevel1AndBase~|ReportField=ItemRevisionLevel2AndLevel1~
1|Cap|Capacitor|C1, C3, C4, C5, C6, C7, C10, C14, C15, C16, C20, C22, C23, C26, C28, C29, C30, C31, C32, C33, C34, C35, C36, C37, C40, C41, C42, C43, C44, C45, C46, C47, C48, C49|RAD-0.3|Cap|34
2|Cap Pol1|Polarized Capacitor (Radial)|C2, C19, C38, C39|CP-RAD-12.5mm-20.0mm-5.0mm|Cap Pol1|4
3|Cap Pol1|Polarized Capacitor (Radial)|C8, C11|CP-RAD-4.0mm-7.0mm-1.5mm|Cap Pol1|2
4|Poly|Capacitor|C9, C12, C17, C18|RAD-0.3|Cap|4
5|1uF|Electrolytic Capacitor|C13|CP-RAD-4.0mm-11.0mm-1.5mm|Capacitor-Electrolytic|1
6|Cap Pol1|Polarized Capacitor (Radial)|C21, C24, C27|CP-RAD-8.0mm-11.5mm-3.5mm|Cap Pol1|3
7|Cap Pol1|Polarized Capacitor (Radial)|C25|CP-RAD-8.0mm-15.0mm-3.5mm|Cap Pol1|1
8|PT2399||CI1, CI2, CI3|DIP16-300(100)|PT2399|3
9|HS-TO-220|Heatsink TO-220|HS1|HS-TO-220-180847|HS-TO-220|1
10|Terminal|Terminal Block 1x2|IN, OUT, P1|KRE_2|KRE_2|3
11|Res1|Resistor|J1, R1, R2, R3, R4, R5, R6, R7, R8, R9, R10, R11, R12, R13, R14, R16, R17, R18, R19, R20, R21, R22, R23, R24, R25, R26, R27, R28, R29, R30, R31, R32, R33, R34, R35, R36, R37, R38, R39, R40, R41, R42, R43, R44, R45, R46, R47, R48, R49, R50, R51, R52, R53|AXIAL-0.3|Res1|53
12|LM7805CT|Positive 5 V Regulator|Q1|TO-220/123|LM7805CT|1
13|2SK117|N-Channel JFET|Q2|TO-254-AA|JFET-N|1
14|BC548|NPN General Purpose Amplifier|Q3, Q4, Q5|TO-92A|2N3904|3
15|20k|Potentiometer|R15|POT|Potentiometer|1
16|50k|Trimpot|T1|Trimpot-3296W|Trimpot|1
17|TestPoint|Test Point|TP1, TP2|TEST_POINT_PTH|TestPoint|2
18|R1|Test Point|TP3|TEST_POINT_PTH|TestPoint|1
19|R2|Test Point|TP4|TEST_POINT_PTH|TestPoint|1
20|R3|Test Point|TP5|TEST_POINT_PTH|TestPoint|1
21|TL072P|Low-Noise JFET-Input Operational Amplifier|U1|P008|TL072P|1
22|IFSC|Logomarca IFSC|X1|IFSC_BOTTOM|IFSC|1
