\relax 
\catcode `"\active 
\babel@aux{brazilian}{}
\@writefile{toc}{\contentsline {section}{\numberline {1}Introdu\IeC {\c c}ao}{2}}
\@writefile{toc}{\contentsline {section}{\numberline {2}Projeto da fonte}{3}}
\@writefile{toc}{\contentsline {subsection}{\numberline {2.1}Circuito retificador}{3}}
\@writefile{lof}{\contentsline {figure}{\numberline {1}{\ignorespaces Circuito retificador (fonte: autoria pr\IeC {\'o}pria).}}{3}}
\newlabel{fig:ret}{{1}{3}}
\@writefile{toc}{\contentsline {subsection}{\numberline {2.2}Regula\IeC {\c c}\IeC {\~a}o de tens\IeC {\~a}o}{4}}
\@writefile{lof}{\contentsline {figure}{\numberline {2}{\ignorespaces Regulador de tens\IeC {\~a}o. Fonte: autoria pr\IeC {\'o}pria.}}{4}}
\newlabel{fig:regulador}{{2}{4}}
\@writefile{lof}{\contentsline {figure}{\numberline {3}{\ignorespaces Dobrador de tens\IeC {\~a}o. Fonte: Sedra e Smith (2015).}}{5}}
\newlabel{fig:dobrador}{{3}{5}}
\@writefile{toc}{\contentsline {subsection}{\numberline {2.3}Refer\IeC {\^e}ncia de tens\IeC {\~a}o}{5}}
\@writefile{lof}{\contentsline {figure}{\numberline {4}{\ignorespaces Fontes de corrente. Fonte: autoria pr\IeC {\'o}pria.}}{6}}
\newlabel{fonteCorrente}{{4}{6}}
\@writefile{toc}{\contentsline {subsection}{\numberline {2.4}Limita\IeC {\c c}\IeC {\~a}o de corrente}{6}}
\@writefile{lof}{\contentsline {figure}{\numberline {5}{\ignorespaces Opera\IeC {\c c}\IeC {\~a}o da topologia Foldback. Fonte: Malvino e Bates (2016).}}{6}}
\newlabel{FoldbackGrafico}{{5}{6}}
\@writefile{lof}{\contentsline {figure}{\numberline {6}{\ignorespaces Circuito limitador de corrente. Fonte: autoria propria.}}{7}}
\newlabel{foldback}{{6}{7}}
\@writefile{toc}{\contentsline {section}{\numberline {3}Resulados de simula\IeC {\c c}\IeC {\~a}o}{7}}
\@writefile{lof}{\contentsline {figure}{\numberline {7}{\ignorespaces Corrente nos diodos. Fonte: autoria pr\IeC {\'o}ria.}}{7}}
\newlabel{fig:diodeCurrent}{{7}{7}}
\@writefile{lof}{\contentsline {figure}{\numberline {8}{\ignorespaces Ripple da sa\IeC {\'\i }da. Fonte: autoria pr\IeC {\'o}ria.}}{8}}
\newlabel{fig:ripple+}{{8}{8}}
\@writefile{lot}{\contentsline {table}{\numberline {1}{\ignorespaces Par\IeC {\^a}metros simulados. Fonte: autoria pr\IeC {\'o}pria.}}{8}}
\newlabel{tabela1}{{1}{8}}
\@writefile{lof}{\contentsline {figure}{\numberline {9}{\ignorespaces Gr\IeC {\'a}fico Vout vs Iout. Fonte: autoria pr\IeC {\'o}ria.}}{8}}
\newlabel{graph}{{9}{8}}
\@writefile{toc}{\contentsline {section}{\numberline {4}Montagem do circuito}{9}}
\@writefile{lof}{\contentsline {figure}{\numberline {10}{\ignorespaces Placa de Circuito impresso.}}{9}}
\newlabel{placa}{{10}{9}}
\@writefile{toc}{\contentsline {section}{\numberline {5}Resultados de laborat\IeC {\'o}rio}{9}}
\@writefile{lof}{\contentsline {figure}{\numberline {11}{\ignorespaces Bancada de testes.}}{10}}
\newlabel{testes}{{11}{10}}
\@writefile{lof}{\contentsline {figure}{\numberline {12}{\ignorespaces Oscila\IeC {\c c}\IeC {\~a}o do circuito de controle.}}{11}}
\newlabel{oscila\IeC {\c c}\IeC {\~a}o}{{12}{11}}
\@writefile{lot}{\contentsline {table}{\numberline {2}{\ignorespaces Par\IeC {\^a}metros medidos. Fonte: autoria pr\IeC {\'o}pria.}}{11}}
\newlabel{tabela2}{{2}{11}}
\@writefile{toc}{\contentsline {section}{\numberline {6}Considera\IeC {\c c}\IeC {\~o}es finais}{11}}
\@writefile{toc}{\contentsline {section}{\numberline {7}Refer\IeC {\^e}ncias}{12}}
